3.1623e+03 1.1278e-21 3.6103e-25 3.6884e-25 7.9942e-25 1.1278e-21 
3.5481e+03 2.3649e-21 3.7412e-25 3.9193e-25 8.4955e-25 2.3634e-21 
3.9811e+03 4.5937e-21 3.8769e-25 4.1652e-25 9.0292e-25 4.5712e-21 
4.4668e+03 8.3371e-21 4.0176e-25 4.4272e-25 9.5972e-25 8.0798e-21 
5.0119e+03 1.4245e-20 4.1637e-25 4.7063e-25 1.0202e-24 1.2165e-20 
5.6234e+03 2.3067e-20 4.3154e-25 5.0036e-25 1.0846e-24 1.2975e-20 
6.3096e+03 3.5615e-20 4.4730e-25 5.3204e-25 1.1531e-24 8.7905e-21 
7.0795e+03 5.2703e-20 4.6369e-25 5.6581e-25 1.2261e-24 4.5865e-21 
7.9433e+03 7.5105e-20 4.8074e-25 6.0179e-25 1.3038e-24 2.2717e-21 
8.9125e+03 1.0350e-19 4.9849e-25 6.4014e-25 1.3866e-24 1.1603e-21 
1.0000e+04 1.3845e-19 5.1697e-25 6.8102e-25 1.4748e-24 6.2387e-22 
1.1220e+04 1.8036e-19 5.3624e-25 7.2460e-25 1.5687e-24 3.5380e-22 
1.2589e+04 2.2951e-19 5.5633e-25 7.7105e-25 1.6688e-24 2.1096e-22 
1.4125e+04 2.8604e-19 5.7729e-25 8.2058e-25 1.7754e-24 1.3170e-22 
1.5849e+04 3.4994e-19 5.9916e-25 8.7339e-25 1.8890e-24 8.5715e-23 
1.7783e+04 4.2109e-19 6.2201e-25 9.2971e-25 2.0101e-24 5.7938e-23 
1.9953e+04 4.9928e-19 6.4589e-25 9.8976e-25 2.1392e-24 4.0531e-23 
2.2387e+04 5.8415e-19 6.7084e-25 1.0538e-24 2.2768e-24 2.9255e-23 
2.5119e+04 6.7526e-19 6.9693e-25 1.1221e-24 2.4234e-24 2.1727e-23 
2.8184e+04 7.7205e-19 7.2424e-25 1.1949e-24 2.5798e-24 1.6564e-23 
3.1623e+04 8.7386e-19 7.5308e-25 1.2726e-24 2.7465e-24 1.2935e-23 
3.5481e+04 9.7993e-19 7.8591e-25 1.3554e-24 2.9242e-24 1.0330e-23 
3.9811e+04 1.0894e-18 8.4107e-25 1.4438e-24 3.1137e-24 8.4426e-24 
4.4668e+04 1.2013e-18 1.0256e-24 1.5381e-24 3.3158e-24 7.1698e-24 
5.0119e+04 1.3148e-18 1.8384e-24 1.6391e-24 3.5313e-24 6.8700e-24 
5.6234e+04 1.4286e-18 5.1692e-24 1.7511e-24 3.7611e-24 9.3370e-24 
6.3096e+04 1.5418e-18 1.6954e-23 1.9003e-24 4.0062e-24 2.0411e-23 
7.0795e+04 1.6533e-18 5.2928e-23 2.2219e-24 4.2676e-24 5.5322e-23 
7.9433e+04 1.7620e-18 1.4887e-22 3.2823e-24 4.5464e-24 1.4477e-22 
8.9125e+04 1.8670e-18 3.7555e-22 7.0329e-24 4.8437e-24 3.2206e-22 
1.0000e+05 1.9673e-18 8.5623e-22 1.9090e-23 5.1609e-24 5.4970e-22 
1.1220e+05 2.0621e-18 1.7820e-21 5.3211e-23 5.4990e-24 6.9769e-22 
1.2589e+05 2.1505e-18 3.4188e-21 1.3854e-22 5.8596e-24 7.5398e-22 
1.4125e+05 2.2319e-18 6.1014e-21 3.2916e-22 6.2440e-24 8.5167e-22 
1.5849e+05 2.3058e-18 1.0212e-20 7.1406e-22 6.6540e-24 1.0999e-21 
1.7783e+05 2.3716e-18 1.6145e-20 1.4246e-21 7.0909e-24 1.4853e-21 
1.9953e+05 2.4291e-18 2.4272e-20 2.6363e-21 7.5565e-24 1.8024e-21 
2.2387e+05 2.4781e-18 3.4897e-20 4.5627e-21 8.0526e-24 1.8232e-21 
2.5119e+05 2.5183e-18 4.8231e-20 7.4424e-21 8.5811e-24 1.5882e-21 
2.8184e+05 2.5499e-18 6.4375e-20 1.1520e-20 9.1439e-24 1.2774e-21 
3.1623e+05 2.5728e-18 8.3314e-20 1.7026e-20 9.7429e-24 9.9781e-22 
3.5481e+05 2.5873e-18 1.0493e-19 2.4156e-20 1.0380e-23 7.7682e-22 
3.9811e+05 2.5936e-18 1.2901e-19 3.3059e-20 1.1058e-23 6.0956e-22 
4.4668e+05 2.5920e-18 1.5528e-19 4.3821e-20 1.1779e-23 4.8422e-22 
5.0119e+05 2.5828e-18 1.8343e-19 5.6466e-20 1.2544e-23 3.8993e-22 
5.6234e+05 2.5664e-18 2.1312e-19 7.0882e-20 1.3357e-23 3.1807e-22 
6.3096e+05 2.5432e-18 2.4401e-19 8.7012e-20 1.4219e-23 2.6298e-22 
7.0795e+05 2.5137e-18 2.7576e-19 1.0470e-19 1.5133e-23 2.2029e-22 
7.9433e+05 2.4784e-18 3.0806e-19 1.2375e-19 1.6102e-23 1.8684e-22 
8.9125e+05 2.4376e-18 3.4060e-19 1.4394e-19 1.7127e-23 1.6040e-22 
1.0000e+06 2.3919e-18 3.7312e-19 1.6499e-19 1.8211e-23 1.3931e-22 
1.1220e+06 2.3417e-18 4.0536e-19 1.8472e-19 1.9357e-23 1.2130e-22 
1.2589e+06 2.2875e-18 4.3709e-19 2.0178e-19 2.0566e-23 1.0580e-22 
1.4125e+06 2.2297e-18 4.6808e-19 2.2012e-19 2.1843e-23 9.4144e-23 
1.5849e+06 2.1688e-18 4.9811e-19 2.3586e-19 2.3188e-23 8.4299e-23 
1.7783e+06 2.1051e-18 5.2701e-19 2.5055e-19 2.4604e-23 7.6477e-23 
1.9953e+06 2.0393e-18 5.5456e-19 2.6407e-19 2.6095e-23 7.0289e-23 
2.2387e+06 2.0519e-18 5.8059e-19 2.7631e-19 2.7663e-23 6.5440e-23 
2.5119e+06 1.9896e-18 6.0493e-19 2.8720e-19 2.9310e-23 6.1693e-23 
2.8184e+06 1.9274e-18 6.2742e-19 2.9670e-19 3.1040e-23 5.8868e-23 
3.1623e+06 1.8656e-18 6.4792e-19 3.0479e-19 3.2855e-23 5.6819e-23 
3.5481e+06 1.8044e-18 6.6630e-19 3.1147e-19 3.4761e-23 5.5430e-23 
3.9811e+06 1.7439e-18 6.8246e-19 3.1677e-19 3.6757e-23 5.4610e-23 
4.4668e+06 1.6847e-18 6.9632e-19 3.2071e-19 3.8850e-23 5.4287e-23 
5.0119e+06 1.6261e-18 7.0783e-19 3.2337e-19 4.1043e-23 5.4403e-23 
5.6234e+06 1.5689e-18 7.1699e-19 3.2481e-19 4.3341e-23 5.4910e-23 
6.3096e+06 1.5127e-18 7.2378e-19 3.2510e-19 4.5748e-23 5.5769e-23 
7.0795e+06 1.4577e-18 7.2827e-19 3.2436e-19 4.8269e-23 5.6951e-23 
7.9433e+06 1.4041e-18 7.3052e-19 3.2265e-19 5.0910e-23 5.8432e-23 
8.9125e+06 1.3518e-18 7.3061e-19 3.2009e-19 5.3679e-23 6.0194e-23 
1.0000e+07 1.3010e-18 7.2868e-19 3.1677e-19 5.6579e-23 6.2221e-23 
1.1220e+07 1.2515e-18 7.2485e-19 3.1278e-19 5.9619e-23 6.4503e-23 
1.2589e+07 1.2035e-18 7.1928e-19 3.0822e-19 6.2807e-23 6.7034e-23 
1.4125e+07 1.1569e-18 7.1211e-19 3.0318e-19 6.6153e-23 6.9807e-23 
1.5849e+07 1.1117e-18 7.0353e-19 2.9774e-19 6.9664e-23 7.2822e-23 
1.7783e+07 1.0679e-18 6.9369e-19 2.9197e-19 7.3352e-23 7.6079e-23 
1.9953e+07 1.0256e-18 6.8275e-19 2.8595e-19 7.7227e-23 7.9581e-23 
2.2387e+07 9.8463e-19 6.7089e-19 2.7974e-19 8.1301e-23 8.3331e-23 
2.5119e+07 9.4504e-19 6.5824e-19 2.7339e-19 8.5587e-23 8.7336e-23 
2.8184e+07 9.0680e-19 6.4495e-19 2.6696e-19 9.0100e-23 9.1605e-23 
3.1623e+07 8.6988e-19 6.3115e-19 2.6048e-19 9.4853e-23 9.6148e-23 
3.5481e+07 8.3426e-19 6.1697e-19 2.5401e-19 9.9864e-23 1.0098e-22 
3.9811e+07 7.9990e-19 6.0252e-19 2.4756e-19 1.0515e-22 1.0611e-22 
4.4668e+07 7.6678e-19 5.8789e-19 2.4117e-19 1.1074e-22 1.1156e-22 
5.0119e+07 7.3487e-19 5.7316e-19 2.3485e-19 1.1663e-22 1.1734e-22 
5.6234e+07 7.0413e-19 5.5843e-19 2.2864e-19 1.2287e-22 1.2347e-22 
6.3096e+07 6.7454e-19 5.4374e-19 2.2253e-19 1.2946e-22 1.2997e-22 
7.0795e+07 6.4606e-19 5.2917e-19 2.1655e-19 1.3644e-22 1.3688e-22 
7.9433e+07 6.1867e-19 5.1475e-19 2.1071e-19 1.4383e-22 1.4420e-22 
8.9125e+07 5.9232e-19 5.0053e-19 2.0501e-19 1.5166e-22 1.5198e-22 
1.0000e+08 5.6699e-19 4.8655e-19 1.9946e-19 1.5997e-22 1.6024e-22 
1.1220e+08 5.4265e-19 4.7282e-19 1.9405e-19 1.6879e-22 1.6902e-22 
1.2589e+08 5.1926e-19 4.5937e-19 1.8880e-19 1.7817e-22 1.7836e-22 
1.4125e+08 4.9680e-19 4.4621e-19 1.8370e-19 1.8815e-22 1.8832e-22 
1.5849e+08 4.7524e-19 4.3337e-19 1.7875e-19 1.9878e-22 1.9892e-22 
1.7783e+08 4.5453e-19 4.2084e-19 1.7395e-19 2.1012e-22 2.1024e-22 
1.9953e+08 4.3467e-19 4.0863e-19 1.6930e-19 2.2224e-22 2.2234e-22 
2.2387e+08 4.1560e-19 3.9675e-19 1.6480e-19 2.3521e-22 2.3530e-22 
2.5119e+08 3.9732e-19 3.8520e-19 1.6044e-19 2.4908e-22 2.4916e-22 
2.8184e+08 3.7979e-19 3.7397e-19 1.5621e-19 2.6399e-22 2.6405e-22 
3.1623e+08 3.6298e-19 3.6307e-19 1.5213e-19 2.8005e-22 2.8011e-22 
