3.1623e+03 2.8041e-24 2.0695e-23 7.1915e-24 2.1640e-24 1.4408e-23 1.0920e-20 2.7186e-23 3.4551e-23 5.7259e-23 6.9319e-23 7.1072e-23 8.6080e-23 1.0342e-22 1.2737e-22 1.5316e-22 1.8067e-22 2.1022e-22 2.4087e-22 2.7320e-22 3.0737e-22 3.3168e-22 3.7723e-23 4.0066e-23 2.8042e-24 
3.5481e+03 9.1765e-24 8.5965e-23 7.3004e-24 2.2405e-24 1.4964e-23 1.3751e-20 2.7995e-23 3.5512e-23 5.8914e-23 7.1091e-23 7.4312e-23 9.0078e-23 1.0837e-22 1.3334e-22 1.6036e-22 1.8917e-22 2.2024e-22 2.5225e-22 2.8611e-22 3.2214e-22 3.4879e-22 3.9873e-23 4.2489e-23 9.1790e-24 
3.9811e+03 2.7338e-23 3.0616e-22 7.4122e-24 2.3206e-24 1.5540e-23 1.6782e-20 2.8831e-23 3.6505e-23 6.0600e-23 7.2931e-23 7.7682e-23 9.4232e-23 1.1352e-22 1.3955e-22 1.6786e-22 1.9803e-22 2.3095e-22 2.6411e-22 2.9958e-22 3.3756e-22 3.6667e-22 4.2162e-23 4.5060e-23 2.7449e-23 
4.4668e+03 7.4521e-23 9.4633e-22 7.5269e-24 2.4047e-24 1.6135e-23 1.9919e-20 2.9692e-23 3.7532e-23 6.2314e-23 7.4840e-23 8.1185e-23 9.8547e-23 1.1886e-22 1.4601e-22 1.7571e-22 2.0725e-22 2.4279e-22 2.7649e-22 3.1362e-22 3.5364e-22 3.8536e-22 4.4596e-23 4.7789e-23 7.7750e-23 
5.0119e+03 1.8681e-22 2.5756e-21 7.6448e-24 2.4929e-24 1.6752e-23 2.3061e-20 3.0578e-23 3.8594e-23 6.4056e-23 7.6816e-23 8.4828e-23 1.0303e-22 1.2441e-22 1.5275e-22 1.8398e-22 2.1686e-22 2.5670e-22 2.8939e-22 3.2827e-22 3.7042e-22 4.0488e-22 4.7186e-23 5.0685e-23 2.5055e-22 
5.6234e+03 4.3308e-22 6.2580e-21 7.7722e-24 2.5857e-24 1.7391e-23 2.6114e-20 3.1488e-23 3.9693e-23 6.5826e-23 7.8860e-23 8.8615e-23 1.0768e-22 1.3017e-22 1.5983e-22 1.9291e-22 2.2686e-22 2.7436e-22 3.0286e-22 3.4355e-22 3.8792e-22 4.2526e-22 4.9941e-23 5.3758e-23 1.2521e-21 
6.3096e+03 9.3401e-22 1.3744e-20 7.9398e-24 2.6831e-24 1.8051e-23 2.8992e-20 3.2423e-23 4.0831e-23 6.7625e-23 8.0971e-23 9.2552e-23 1.1251e-22 1.3614e-22 1.6745e-22 2.0300e-22 2.3727e-22 2.9845e-22 3.1694e-22 3.5948e-22 4.0616e-22 4.4652e-22 5.2871e-23 5.7021e-23 6.6611e-21 
7.0795e+03 1.8859e-21 2.7591e-20 8.3321e-24 2.7855e-24 1.8736e-23 3.1626e-20 3.3383e-23 4.2009e-23 6.9453e-23 8.3147e-23 9.6643e-23 1.1752e-22 1.4234e-22 1.7606e-22 2.1521e-22 2.4812e-22 3.3280e-22 3.3179e-22 3.7609e-22 4.2517e-22 4.6871e-22 5.5986e-23 6.0484e-23 2.1719e-20 
7.9433e+03 3.5885e-21 5.1144e-20 9.7817e-24 2.8934e-24 1.9444e-23 3.3961e-20 3.4369e-23 4.3230e-23 7.1316e-23 8.5389e-23 1.0089e-22 1.2271e-22 1.4876e-22 1.8659e-22 2.3117e-22 2.5940e-22 3.8231e-22 3.4775e-22 3.9340e-22 4.4497e-22 4.9183e-22 5.9298e-23 6.4160e-23 4.7524e-20 
8.9125e+03 6.4753e-21 8.8324e-20 1.5358e-23 3.0082e-24 2.0177e-23 3.5961e-20 3.5382e-23 4.4494e-23 7.3214e-23 8.7697e-23 1.0531e-22 1.2810e-22 1.5541e-22 2.0073e-22 2.5334e-22 2.7115e-22 4.5270e-22 3.6558e-22 4.1144e-22 4.6560e-22 5.1594e-22 6.2820e-23 6.8063e-23 8.6229e-20 
1.0000e+04 1.1147e-20 1.4325e-19 3.4451e-23 3.1402e-24 2.0937e-23 3.7607e-20 3.6423e-23 4.5806e-23 7.5154e-23 9.0070e-23 1.0990e-22 1.3369e-22 1.6231e-22 2.2120e-22 2.8499e-22 2.8337e-22 5.5003e-22 3.8672e-22 4.3025e-22 4.8709e-22 5.4105e-22 6.6564e-23 7.2207e-23 1.4196e-19 
1.1220e+04 1.8406e-20 2.1976e-19 9.1301e-23 3.3515e-24 2.1723e-23 3.8894e-20 3.7495e-23 4.7165e-23 7.7138e-23 9.2512e-23 1.1467e-22 1.3949e-22 1.6944e-22 2.5183e-22 3.2996e-22 2.9610e-22 6.8020e-22 4.1364e-22 4.4985e-22 5.0945e-22 5.6720e-22 7.0544e-23 7.6608e-23 2.1842e-19 
1.2589e+04 2.9283e-20 3.2090e-19 2.3954e-22 3.9491e-24 2.2538e-23 3.9828e-20 3.8600e-23 4.8576e-23 7.9171e-23 9.5022e-23 1.1963e-22 1.4550e-22 1.7683e-22 2.9738e-22 3.9230e-22 3.0937e-22 8.4838e-22 4.5007e-22 4.7027e-22 5.3274e-22 5.9441e-22 7.4774e-23 8.1280e-23 3.1584e-19 
1.4125e+04 4.5051e-20 4.4851e-19 5.8219e-22 6.1575e-24 2.3382e-23 4.0426e-20 3.9738e-23 5.0043e-23 8.1259e-23 9.7606e-23 1.2478e-22 1.5173e-22 1.8447e-22 3.6312e-22 4.7570e-22 3.2331e-22 1.0586e-21 5.0094e-22 4.9155e-22 5.5697e-22 6.2273e-22 7.9271e-23 8.6242e-23 4.2055e-19 
1.5849e+04 6.7220e-20 6.0295e-19 1.2931e-21 1.3999e-23 2.4255e-23 4.0711e-20 4.0913e-23 5.1585e-23 8.3414e-23 1.0027e-22 1.3015e-22 1.5821e-22 1.9238e-22 4.5409e-22 5.8305e-22 3.3820e-22 1.3131e-21 5.7206e-22 5.1371e-22 5.8218e-22 6.5218e-22 8.4052e-23 9.1512e-23 4.8004e-19 
1.7783e+04 9.7489e-20 7.8301e-19 2.6319e-21 3.8553e-23 2.5161e-23 4.0711e-20 4.2128e-23 5.3297e-23 8.5687e-23 1.0305e-22 1.3582e-22 1.6510e-22 2.0056e-22 5.7428e-22 7.1619e-22 3.5478e-22 1.6123e-21 6.6945e-22 5.3680e-22 6.0841e-22 6.8280e-22 8.9133e-23 9.7109e-23 4.1954e-19 
1.9953e+04 1.3766e-19 9.8602e-19 4.9448e-21 1.0581e-22 2.6098e-23 4.0458e-20 4.3383e-23 5.5614e-23 8.8309e-23 1.0608e-22 1.4212e-22 1.7320e-22 2.0901e-22 7.2589e-22 8.7595e-22 3.7459e-22 1.9544e-21 7.9842e-22 5.6084e-22 6.3568e-22 7.1462e-22 9.4534e-23 1.0305e-22 2.7551e-19 
2.2387e+04 1.8953e-19 1.2081e-18 8.6439e-21 2.6855e-22 2.7070e-23 3.9984e-20 4.4683e-23 6.0159e-23 9.2192e-23 1.0999e-22 1.5023e-22 1.8600e-22 2.1775e-22 9.0883e-22 1.0625e-21 4.0054e-22 2.3353e-21 9.6269e-22 5.8587e-22 6.6404e-22 7.4768e-22 1.0028e-22 1.0937e-22 1.5662e-19 
2.5119e+04 2.5475e-19 1.4445e-18 1.4168e-20 6.2079e-22 2.8083e-23 3.9324e-20 4.6029e-23 7.1981e-23 1.0037e-22 1.1749e-22 1.6405e-22 2.1582e-22 2.2678e-22 1.1206e-21 1.2759e-21 4.3751e-22 2.7493e-21 1.1636e-21 6.1193e-22 6.9353e-22 7.8201e-22 1.0638e-22 1.1608e-22 9.1250e-20 
2.8184e+04 3.3469e-19 1.6900e-18 2.1928e-20 1.3118e-21 2.9185e-23 3.8695e-20 4.7425e-23 1.0429e-22 1.2134e-22 1.3619e-22 1.9525e-22 2.9900e-22 2.3611e-22 1.3563e-21 1.5160e-21 4.9268e-22 3.1890e-21 1.3998e-21 6.3906e-22 7.2420e-22 8.1765e-22 1.1287e-22 1.2321e-22 6.1584e-20 
3.1623e+04 4.3030e-19 1.9397e-18 3.2260e-20 2.5555e-21 3.0745e-23 3.7968e-20 4.8874e-23 1.8668e-22 1.7554e-22 1.8929e-22 2.7559e-22 5.2609e-22 2.4575e-22 1.6095e-21 1.7831e-21 5.7566e-22 3.6464e-21 1.6673e-21 6.6733e-22 7.5617e-22 8.5463e-22 1.1976e-22 1.3078e-22 4.9846e-20 
3.5481e+04 5.4202e-19 2.1886e-18 4.5386e-20 4.6339e-21 3.4940e-23 3.7188e-20 5.0378e-23 3.7659e-22 3.0551e-22 3.3333e-22 4.8277e-22 1.0909e-21 2.5571e-22 1.8725e-21 2.0774e-21 6.9792e-22 4.1136e-21 1.9596e-21 6.9684e-22 7.8980e-22 8.9300e-22 1.2709e-22 1.3883e-22 4.4085e-20 
3.9811e+04 6.6975e-19 2.4327e-18 6.1415e-20 7.8936e-21 5.2060e-23 3.6428e-20 5.1942e-23 7.7163e-22 5.8884e-22 6.9745e-22 9.8609e-22 2.3533e-21 2.6600e-22 2.1371e-21 2.3985e-21 8.7179e-22 4.5833e-21 2.2687e-21 7.2788e-22 8.2629e-22 9.3280e-22 1.3489e-22 1.4739e-22 3.7954e-20 
4.4668e+04 8.1281e-19 2.6689e-18 8.0373e-20 1.2740e-20 1.2114e-22 3.5318e-20 5.3569e-23 1.5185e-21 1.1507e-21 1.5444e-21 2.1134e-21 4.9002e-21 2.7662e-22 2.3957e-21 2.7451e-21 1.1091e-21 5.0488e-21 2.5859e-21 7.6112e-22 8.6910e-22 9.7406e-22 1.4318e-22 1.5648e-22 3.2558e-20 
5.0119e+04 9.6999e-19 2.8947e-18 1.0227e-19 1.9631e-20 3.6451e-22 3.4468e-20 5.5262e-23 2.8130e-21 2.1706e-21 3.3578e-21 4.4287e-21 9.5765e-21 2.8760e-22 2.6409e-21 3.1144e-21 1.4196e-21 5.5048e-21 2.9028e-21 7.9802e-22 9.2706e-22 1.0168e-21 1.5199e-22 1.6614e-22 3.1144e-20 
5.6234e+04 1.1396e-18 3.1088e-18 1.2719e-19 2.9077e-20 1.1002e-21 3.4181e-20 5.7026e-23 4.8880e-21 3.8790e-21 6.9433e-21 8.7981e-21 1.7463e-20 2.9893e-22 2.8671e-21 3.5019e-21 1.8097e-21 5.9469e-21 3.2124e-21 8.4156e-22 1.0196e-21 1.0611e-21 1.6136e-22 1.7642e-22 3.3698e-20 
6.3096e+04 1.3195e-18 3.3103e-18 1.5538e-19 4.1640e-20 3.0156e-21 3.5012e-20 5.8864e-23 7.9888e-21 6.5394e-21 1.3517e-20 1.6410e-20 2.9783e-20 3.1064e-22 3.0696e-21 3.9017e-21 2.2818e-21 6.3725e-21 3.5103e-21 8.9736e-22 1.1845e-21 1.1071e-21 1.7133e-22 1.8734e-22 3.7332e-20 
7.0795e+04 1.5074e-18 3.4990e-18 1.8732e-19 5.7955e-20 7.3316e-21 3.7800e-20 6.0781e-23 1.2341e-20 1.0419e-20 2.4745e-20 2.8729e-20 4.7755e-20 3.2273e-22 3.2454e-21 4.3066e-21 2.8348e-21 6.7810e-21 3.7968e-21 9.7579e-22 1.4863e-21 1.1546e-21 1.8193e-22 1.9895e-22 3.9175e-20 
7.9433e+04 1.7006e-18 3.6752e-18 2.2373e-19 7.8740e-20 1.5780e-20 4.4276e-20 6.2782e-23 1.8114e-20 1.5750e-20 4.2692e-20 4.7367e-20 7.2413e-20 3.3522e-22 3.3926e-21 4.7094e-21 3.4668e-21 7.1771e-21 4.0801e-21 1.0960e-21 2.0235e-21 1.2038e-21 1.9320e-22 2.1130e-22 4.1163e-20 
8.9125e+04 1.8964e-18 3.8392e-18 2.6559e-19 1.0483e-19 3.0210e-20 5.6783e-20 6.4875e-23 2.5396e-20 2.2698e-20 6.9669e-20 7.3905e-20 1.0444e-19 3.4812e-22 3.5112e-21 5.1043e-21 4.1814e-21 7.5754e-21 4.3815e-21 1.2927e-21 2.9299e-21 1.2548e-21 2.0519e-22 2.2443e-22 4.8803e-20 
1.0000e+05 2.0922e-18 3.9913e-18 3.1408e-19 1.3718e-19 5.1880e-20 7.8426e-20 6.7090e-23 3.4175e-20 3.1327e-20 1.0798e-19 1.0969e-19 1.4405e-19 3.6145e-22 3.6032e-21 5.4907e-21 4.9977e-21 8.0082e-21 4.7446e-21 1.6270e-21 4.3684e-21 1.3076e-21 2.1794e-22 2.3840e-22 6.5449e-20 
1.1220e+05 2.2852e-18 4.1320e-18 3.7044e-19 1.7690e-19 8.0877e-20 1.1295e-19 6.9565e-23 4.4337e-20 4.1591e-20 1.5960e-19 1.5564e-19 1.9093e-19 3.7522e-22 3.6736e-21 5.8789e-21 5.9637e-21 8.5371e-21 5.2466e-21 2.1993e-21 6.5151e-21 1.3622e-21 2.3151e-22 2.5325e-22 9.1333e-20 
1.2589e+05 2.4730e-18 4.2614e-18 4.3591e-19 2.2518e-19 1.1611e-19 1.6418e-19 7.2895e-23 5.5676e-20 5.3332e-20 2.2591e-19 2.1214e-19 2.4430e-19 3.8946e-22 3.7340e-21 6.2979e-21 7.1697e-21 9.2634e-21 6.0102e-21 3.1610e-21 9.5370e-21 1.4187e-21 2.4595e-22 2.6906e-22 1.2536e-19 
1.4125e+05 2.6533e-18 4.3796e-18 5.1161e-19 2.8328e-19 1.5582e-19 2.3572e-19 7.9256e-23 6.7917e-20 6.6297e-20 3.0743e-19 2.7897e-19 3.0296e-19 4.0417e-22 3.8060e-21 6.8048e-21 8.7562e-21 1.0336e-20 7.2119e-21 4.7183e-21 1.3566e-20 1.4771e-21 2.6132e-22 2.8587e-22 1.6756e-19 
1.5849e+05 2.8239e-18 4.4864e-18 5.9842e-19 3.5242e-19 1.9825e-19 3.3033e-19 9.5373e-23 8.0741e-20 8.0163e-20 4.0369e-19 3.5535e-19 3.6543e-19 4.1938e-22 3.9265e-21 7.4922e-21 1.0912e-20 1.1953e-20 9.0818e-21 7.1247e-21 1.8677e-20 1.5375e-21 2.7766e-22 3.0376e-22 2.2291e-19 
1.7783e+05 2.9830e-18 4.5817e-18 6.9693e-19 4.3370e-19 2.4205e-19 4.4961e-19 1.3908e-22 9.3814e-20 9.4568e-20 5.1329e-19 4.3996e-19 4.3008e-19 4.3510e-22 4.1518e-21 8.4897e-21 1.3861e-20 1.4349e-20 1.1890e-20 1.0658e-20 2.4875e-20 1.6000e-21 2.9506e-22 3.2279e-22 3.0354e-19 
1.9953e+05 3.1291e-18 4.6650e-18 8.0740e-19 5.2796e-19 2.8648e-19 5.9340e-19 2.5149e-22 1.0682e-19 1.0914e-19 6.3395e-19 5.3110e-19 4.9525e-19 4.5137e-22 4.5586e-21 9.9576e-21 1.7830e-20 1.7775e-20 1.5921e-20 1.5584e-20 3.2084e-20 1.6647e-21 3.1358e-22 3.4305e-22 4.1845e-19 
2.2387e+05 3.2608e-18 4.7360e-18 9.2973e-19 6.3572e-19 3.3136e-19 7.6012e-19 5.1608e-22 1.1947e-19 1.2353e-19 7.6278e-19 6.2682e-19 5.5940e-19 4.6819e-22 5.2396e-21 1.2070e-20 2.3021e-20 2.2467e-20 2.1436e-20 2.2121e-20 4.0161e-20 1.7315e-21 3.3330e-22 3.6461e-22 5.5072e-19 
2.5119e+05 3.3772e-18 4.7944e-18 1.0635e-18 7.5709e-19 3.7699e-19 9.4686e-19 1.0839e-21 1.3157e-19 1.3743e-19 8.9654e-19 7.2502e-19 6.2115e-19 4.8560e-22 6.2945e-21 1.4994e-20 2.9572e-20 2.8613e-20 2.8635e-20 3.0397e-20 4.8905e-20 1.8005e-21 3.5428e-22 3.8756e-22 6.5163e-19 
2.8184e+05 3.4776e-18 4.8399e-18 1.2078e-18 8.9174e-19 4.2406e-19 1.1499e-18 2.2012e-21 1.4298e-19 1.5060e-19 1.0319e-18 8.2364e-19 6.7938e-19 5.0361e-22 7.8157e-21 1.8859e-20 3.7535e-20 3.6325e-20 3.7624e-20 4.0431e-20 5.8076e-20 1.8719e-21 3.7663e-22 4.1199e-22 6.7071e-19 
3.1623e+05 3.5615e-18 4.8723e-18 1.3618e-18 1.0389e-18 4.7352e-19 1.3647e-18 4.2318e-21 1.5371e-19 1.6291e-19 1.1655e-18 9.2074e-19 7.3325e-19 5.2229e-22 9.8739e-21 2.3740e-20 4.6858e-20 4.5613e-20 4.8390e-20 5.2121e-20 6.7418e-20 1.9456e-21 4.0042e-22 4.3800e-22 5.9712e-19 
3.5481e+05 3.6286e-18 4.8917e-18 1.5240e-18 1.1972e-18 5.2647e-19 1.5866e-18 7.6680e-21 1.6389e-19 1.7430e-19 1.2947e-18 1.0146e-18 7.8219e-19 5.4175e-22 1.2504e-20 2.9642e-20 5.7391e-20 5.6386e-20 6.0798e-20 6.5254e-20 7.6680e-20 2.0219e-21 4.2575e-22 4.6570e-22 4.7238e-19 
3.9811e+05 3.6790e-18 4.8981e-18 1.6929e-18 1.3652e-18 5.8399e-19 1.8113e-18 1.3121e-20 1.7379e-19 1.8486e-19 1.4169e-18 1.1037e-18 8.2591e-19 5.6243e-22 1.5700e-20 3.6491e-20 6.8895e-20 6.8447e-20 7.4603e-20 7.9523e-20 8.5625e-20 2.1006e-21 4.5274e-22 4.9519e-22 3.5535e-19 
4.4668e+05 3.7128e-18 4.8919e-18 1.8670e-18 1.5409e-18 6.4709e-19 2.0352e-18 2.1290e-20 1.8384e-19 1.9481e-19 1.5304e-18 1.1871e-18 8.6552e-19 5.8581e-22 1.9408e-20 4.4148e-20 8.1072e-20 8.1520e-20 8.9469e-20 9.4559e-20 9.4049e-20 2.1819e-21 4.8148e-22 5.2660e-22 2.8121e-19 
5.0119e+05 3.7304e-18 4.8735e-18 2.0443e-18 1.7220e-18 7.1652e-19 2.2547e-18 3.2913e-20 1.9458e-19 2.0447e-19 1.6339e-18 1.2639e-18 9.0047e-19 6.1608e-22 2.3538e-20 5.2417e-20 9.3585e-20 9.5268e-20 1.0500e-19 1.0997e-19 1.0178e-19 2.2659e-21 5.1209e-22 5.6005e-22 2.5935e-19 
5.6234e+05 3.7321e-18 4.8435e-18 2.2230e-18 1.9062e-18 7.9278e-19 2.4673e-18 4.8700e-20 2.0665e-19 2.1430e-19 1.7269e-18 1.3320e-18 9.3063e-19 6.6928e-22 2.7965e-20 6.1067e-20 1.0609e-19 1.0933e-19 1.2078e-19 1.2534e-19 1.0870e-19 2.3527e-21 5.4471e-22 5.9569e-22 2.9620e-19 
6.3096e+05 3.7185e-18 4.8026e-18 2.4012e-18 2.0910e-18 8.7599e-19 2.6710e-18 6.9267e-20 2.2069e-19 2.2481e-19 1.8090e-18 1.3911e-18 9.5632e-19 7.6742e-22 3.2555e-20 6.9855e-20 1.1826e-19 1.2333e-19 1.3640e-19 1.4032e-19 1.1472e-19 2.4423e-21 5.7946e-22 6.3366e-22 4.0964e-19 
7.0795e+05 3.6904e-18 4.7515e-18 2.5771e-18 2.2739e-18 9.6591e-19 2.8646e-18 9.5074e-20 2.3736e-19 2.3654e-19 1.8807e-18 1.4429e-18 9.7793e-19 1.3147e-21 3.7169e-20 7.8541e-20 1.2981e-19 1.3693e-19 1.5148e-19 1.5456e-19 1.1977e-19 2.5348e-21 6.1648e-22 6.7410e-22 6.1721e-19 
7.9433e+05 3.6484e-18 4.6911e-18 2.7488e-18 2.4525e-18 1.0619e-18 3.0468e-18 1.2637e-19 2.5717e-19 2.5002e-19 1.9426e-18 1.4878e-18 9.9592e-19 2.1999e-21 4.1673e-20 8.6907e-20 1.4048e-19 1.4982e-19 1.6568e-19 1.6781e-19 1.2385e-19 2.6303e-21 6.5594e-22 7.1720e-22 8.8091e-19 
8.9125e+05 3.5934e-18 4.6224e-18 2.9144e-18 2.6246e-18 1.1631e-18 3.2170e-18 1.6318e-19 2.8055e-19 2.6572e-19 1.9954e-18 1.5265e-18 1.0108e-18 3.9237e-21 4.5971e-20 9.4838e-20 1.5008e-19 1.6174e-19 1.7873e-19 1.7985e-19 1.2696e-19 2.7289e-21 6.9800e-22 7.6313e-22 1.0248e-18 
1.0000e+06 3.5264e-18 4.5462e-18 3.0724e-18 2.7880e-18 1.2683e-18 3.3748e-18 2.0528e-19 3.0770e-19 2.8398e-19 2.0403e-18 1.5598e-18 1.0231e-18 7.0174e-21 5.0001e-20 1.0214e-19 1.5849e-19 1.7250e-19 1.9051e-19 1.9054e-19 1.2912e-19 2.8307e-21 7.4282e-22 8.1208e-22 8.9045e-19 
1.1220e+06 3.4483e-18 4.4635e-18 3.2211e-18 2.9409e-18 1.3760e-18 3.5199e-18 2.5220e-19 3.3865e-19 3.0501e-19 2.0780e-18 1.5884e-18 1.0335e-18 1.2164e-20 5.3755e-20 1.0876e-19 1.6560e-19 1.8195e-19 2.0083e-19 1.9979e-19 1.3042e-19 2.9359e-21 7.9059e-22 8.6426e-22 6.3778e-19 
1.2589e+06 3.3604e-18 4.3752e-18 3.3593e-18 3.0816e-18 1.4847e-18 3.6520e-18 3.0329e-19 3.7323e-19 3.2886e-19 2.1096e-18 1.6131e-18 1.0425e-18 2.0153e-20 5.7282e-20 1.1471e-19 1.7140e-19 1.9000e-19 2.0966e-19 2.0761e-19 1.3092e-19 3.0444e-21 8.4152e-22 9.1987e-22 4.4442e-19 
1.4125e+06 3.2638e-18 4.2821e-18 3.4858e-18 3.2088e-18 1.5929e-18 3.7709e-18 3.5772e-19 4.1106e-19 3.5541e-19 2.1359e-18 1.6346e-18 1.0506e-18 3.1816e-20 6.0854e-20 1.2003e-19 1.7587e-19 1.9662e-19 2.1706e-19 2.1402e-19 1.3075e-19 3.1564e-21 8.9582e-22 9.7916e-22 3.2850e-19 
1.5849e+06 3.1598e-18 4.1851e-18 3.5996e-18 3.3217e-18 1.6988e-18 3.8765e-18 4.1453e-19 4.5162e-19 3.8441e-19 2.1575e-18 1.6536e-18 1.0587e-18 4.7931e-20 6.4810e-20 1.2484e-19 1.7909e-19 2.0181e-19 2.2311e-19 2.1914e-19 1.3007e-19 3.2720e-21 9.5371e-22 1.0424e-21 2.6333e-19 
1.7783e+06 3.0499e-18 4.0850e-18 3.7001e-18 3.4195e-18 1.8010e-18 3.9689e-18 4.7272e-19 4.9425e-19 4.1545e-19 2.1749e-18 1.6703e-18 1.0670e-18 6.9151e-20 6.9178e-20 1.2932e-19 1.8116e-19 2.0563e-19 2.2798e-19 2.2311e-19 1.2904e-19 3.3914e-21 1.0154e-21 1.1097e-21 2.2847e-19 
1.9953e+06 2.9354e-18 3.9825e-18 3.7868e-18 3.5018e-18 1.8981e-18 4.0479e-18 5.3126e-19 5.3820e-19 4.4805e-19 2.1886e-18 1.6849e-18 1.0797e-18 9.5930e-20 7.4282e-20 1.3378e-19 1.8223e-19 2.0817e-19 2.3186e-19 2.2612e-19 1.2861e-19 3.5146e-21 1.0813e-21 1.1816e-21 2.1255e-19 
2.2387e+06 2.8178e-18 3.8783e-18 3.8594e-18 3.5687e-18 1.9888e-18 4.1135e-18 5.8914e-19 5.8270e-19 4.8162e-19 2.1987e-18 1.6977e-18 1.0952e-18 1.2850e-19 8.0518e-20 1.3857e-19 1.8252e-19 2.0958e-19 2.3497e-19 2.2838e-19 1.2923e-19 3.6418e-21 1.1514e-21 1.2582e-21 2.0813e-19 
2.5119e+06 2.6986e-18 3.7729e-18 3.9180e-18 3.6202e-18 2.0722e-18 4.1658e-18 6.4542e-19 6.2694e-19 5.1556e-19 2.2055e-18 1.7096e-18 1.1118e-18 1.6686e-19 8.8327e-20 1.4396e-19 1.8240e-19 2.1005e-19 2.3755e-19 2.3009e-19 1.3015e-19 3.7731e-21 1.2263e-21 1.3399e-21 2.0993e-19 
2.8184e+06 2.5790e-18 3.6669e-18 3.9627e-18 3.6570e-18 2.1473e-18 4.2051e-18 6.9927e-19 6.7016e-19 5.4926e-19 2.2089e-18 1.7214e-18 1.1296e-18 2.1081e-19 9.8165e-20 1.5033e-19 1.8338e-19 2.0982e-19 2.3984e-19 2.3149e-19 1.3153e-19 3.9088e-21 1.3061e-21 1.4271e-21 2.1396e-19 
3.1623e+06 2.4603e-18 3.5608e-18 3.9940e-18 3.6795e-18 2.2135e-18 4.2316e-18 7.4996e-19 7.1164e-19 5.8212e-19 2.2089e-18 1.7311e-18 1.1486e-18 2.5996e-19 1.1047e-19 1.5810e-19 1.8483e-19 2.0964e-19 2.4254e-19 2.3276e-19 1.3348e-19 4.0488e-21 1.3913e-21 1.5200e-21 2.1736e-19 
3.5481e+06 2.3438e-18 3.4550e-18 4.0124e-18 3.6888e-18 2.2706e-18 4.2458e-18 7.9690e-19 7.5076e-19 6.1360e-19 2.2055e-18 1.7387e-18 1.1685e-18 3.1380e-19 1.2561e-19 1.6764e-19 1.8692e-19 2.0980e-19 2.4585e-19 2.3411e-19 1.3609e-19 4.1935e-21 1.4821e-21 1.6191e-21 2.1900e-19 
3.9811e+06 2.2302e-18 3.3500e-18 4.0187e-18 3.6855e-18 2.3182e-18 4.2480e-18 8.3963e-19 7.8699e-19 6.4319e-19 2.1987e-18 1.7439e-18 1.1891e-18 3.7174e-19 1.4388e-19 1.7926e-19 1.9001e-19 2.1019e-19 2.4956e-19 2.3566e-19 1.3936e-19 4.3430e-21 1.5790e-21 1.7248e-21 2.1963e-19 
4.4668e+06 2.1204e-18 3.2459e-18 4.0136e-18 3.6710e-18 2.3565e-18 4.2389e-18 8.7786e-19 8.1991e-19 6.7051e-19 2.1884e-18 1.7471e-18 1.2101e-18 4.3311e-19 1.6543e-19 1.9320e-19 1.9442e-19 2.1179e-19 2.5444e-19 2.3756e-19 1.4329e-19 4.4981e-21 1.6825e-21 1.8375e-21 2.2112e-19 
5.0119e+06 2.0151e-18 3.1432e-18 3.9981e-18 3.6461e-18 2.3856e-18 4.2191e-18 9.1139e-19 8.4921e-19 6.9523e-19 2.1746e-18 1.7477e-18 1.2313e-18 4.9721e-19 1.9027e-19 2.0957e-19 2.0043e-19 2.1464e-19 2.6159e-19 2.4269e-19 1.4782e-19 4.6602e-21 1.7936e-21 1.9577e-21 2.2512e-19 
5.6234e+06 1.9147e-18 3.0420e-18 3.9730e-18 3.6120e-18 2.4059e-18 4.1893e-18 9.4016e-19 8.7469e-19 7.1710e-19 2.1575e-18 1.7455e-18 1.2522e-18 5.6332e-19 2.1827e-19 2.2836e-19 2.0821e-19 2.1856e-19 2.6960e-19 2.4873e-19 1.5286e-19 4.8324e-21 1.9140e-21 2.0859e-21 2.3138e-19 
6.3096e+06 1.8194e-18 2.9425e-18 3.9394e-18 3.5698e-18 2.4178e-18 4.1505e-18 9.6421e-19 8.9625e-19 7.3599e-19 2.1369e-18 1.7402e-18 1.2725e-18 6.3074e-19 2.4927e-19 2.4943e-19 2.1787e-19 2.2369e-19 2.7848e-19 2.5528e-19 1.5828e-19 5.0218e-21 2.0474e-21 2.2227e-21 2.3524e-19 
7.0795e+06 1.7293e-18 2.8449e-18 3.8982e-18 3.5205e-18 2.4218e-18 4.1033e-18 9.8367e-19 9.1388e-19 7.5181e-19 2.1132e-18 1.7319e-18 1.2918e-18 6.9873e-19 2.8284e-19 2.7252e-19 2.2936e-19 2.3008e-19 2.8818e-19 2.6233e-19 1.6399e-19 5.2410e-21 2.2006e-21 2.3684e-21 2.2616e-19 
7.9433e+06 1.6446e-18 2.7494e-18 3.8504e-18 3.4653e-18 2.4185e-18 4.0486e-18 9.9874e-19 9.2765e-19 7.6457e-19 2.0864e-18 1.7206e-18 1.3099e-18 7.6660e-19 3.1834e-19 2.9726e-19 2.4255e-19 2.3773e-19 2.9861e-19 2.6982e-19 1.6986e-19 5.5114e-21 2.3858e-21 2.5239e-21 1.9744e-19 
8.9125e+06 1.5651e-18 2.6561e-18 3.7968e-18 3.4050e-18 2.4087e-18 3.9874e-18 1.0097e-18 9.3771e-19 7.7433e-19 2.0567e-18 1.7065e-18 1.3264e-18 8.3366e-19 3.5517e-19 3.2323e-19 2.5725e-19 2.4657e-19 3.0962e-19 2.7765e-19 1.7577e-19 5.8640e-21 2.6217e-21 2.6896e-21 1.5807e-19 
1.0000e+07 1.4906e-18 2.5650e-18 3.7384e-18 3.3405e-18 2.3929e-18 3.9204e-18 1.0168e-18 9.4426e-19 7.8120e-19 2.0245e-18 1.6896e-18 1.3412e-18 8.9925e-19 3.9268e-19 3.5032e-19 2.7316e-19 2.5644e-19 3.2103e-19 2.8572e-19 1.8164e-19 6.3407e-21 2.9352e-21 2.8662e-21 1.2181e-19 
1.1220e+07 1.4209e-18 2.4762e-18 3.6758e-18 3.2726e-18 2.3718e-18 3.8485e-18 1.0204e-18 9.4752e-19 7.8535e-19 1.9898e-18 1.6702e-18 1.3542e-18 9.6274e-19 4.3021e-19 3.7774e-19 2.8995e-19 2.6716e-19 3.3263e-19 2.9392e-19 1.8768e-19 6.9917e-21 3.3609e-21 3.0544e-21 9.4479e-20 
1.2589e+07 1.3558e-18 2.3897e-18 3.6099e-18 3.2022e-18 2.3461e-18 3.7724e-18 1.0208e-18 9.4775e-19 7.8695e-19 1.9530e-18 1.6484e-18 1.3654e-18 1.0235e-18 4.6715e-19 4.0485e-19 3.0725e-19 2.7849e-19 3.4418e-19 3.0211e-19 1.9395e-19 7.8726e-21 3.9394e-21 3.2549e-21 7.5525e-20 
1.4125e+07 1.2949e-18 2.3056e-18 3.5413e-18 3.1298e-18 2.3164e-18 3.6929e-18 1.0183e-18 9.4524e-19 7.8622e-19 1.9145e-18 1.6247e-18 1.3745e-18 1.0811e-18 5.0287e-19 4.3116e-19 3.2491e-19 2.9016e-19 3.5545e-19 3.1015e-19 1.9988e-19 9.0388e-21 4.7145e-21 3.4685e-21 6.2640e-20 
1.5849e+07 1.2379e-18 2.2239e-18 3.4707e-18 3.0561e-18 2.2832e-18 3.6106e-18 1.0133e-18 9.4027e-19 7.8337e-19 1.8743e-18 1.5990e-18 1.3814e-18 1.1349e-18 5.3686e-19 4.5624e-19 3.4277e-19 3.0190e-19 3.6621e-19 3.1793e-19 2.0540e-19 1.0541e-20 5.7295e-21 3.6959e-21 5.3913e-20 
1.7783e+07 1.1846e-18 2.1446e-18 3.3986e-18 2.9816e-18 2.2471e-18 3.5263e-18 1.0062e-18 9.3312e-19 7.7862e-19 1.8330e-18 1.5715e-18 1.3861e-18 1.1845e-18 5.6865e-19 4.7972e-19 3.6002e-19 3.1367e-19 3.7641e-19 3.2530e-19 2.1049e-19 1.2421e-20 7.0192e-21 3.9379e-21 4.8009e-20 
1.9953e+07 1.1346e-18 2.0677e-18 3.3254e-18 2.9066e-18 2.2087e-18 3.4404e-18 9.9707e-19 9.2406e-19 7.7219e-19 1.7906e-18 1.5426e-18 1.3887e-18 1.2295e-18 5.9787e-19 5.0132e-19 3.7632e-19 3.2517e-19 3.8590e-19 3.3215e-19 2.1512e-19 1.4705e-20 8.6130e-21 4.1953e-21 4.4043e-20 
2.2387e+07 1.0877e-18 1.9931e-18 3.2517e-18 2.8317e-18 2.1683e-18 3.3536e-18 9.8636e-19 9.1337e-19 7.6431e-19 1.7474e-18 1.5123e-18 1.3893e-18 1.2697e-18 6.2425e-19 5.2079e-19 3.9144e-19 3.3599e-19 3.9428e-19 3.3838e-19 2.1927e-19 1.7409e-20 1.0528e-20 4.4691e-21 4.1429e-20 
2.5119e+07 1.0437e-18 1.9209e-18 3.1777e-18 2.7571e-18 2.1264e-18 3.2662e-18 9.7428e-19 9.0128e-19 7.5517e-19 1.7038e-18 1.4810e-18 1.3885e-18 1.3048e-18 6.4757e-19 5.3800e-19 4.0517e-19 3.4609e-19 4.0143e-19 3.4389e-19 2.2293e-19 2.0529e-20 1.2768e-20 4.7600e-21 3.9768e-20 
2.8184e+07 1.0022e-18 1.8510e-18 3.1038e-18 2.6832e-18 2.0834e-18 3.1788e-18 9.6106e-19 8.8802e-19 7.4497e-19 1.6598e-18 1.4488e-18 1.3865e-18 1.3346e-18 6.6775e-19 5.5286e-19 4.1735e-19 3.5532e-19 4.0768e-19 3.4862e-19 2.2611e-19 2.4050e-20 1.5326e-20 5.0690e-21 3.8771e-20 
3.1623e+07 9.6308e-19 1.7834e-18 3.0303e-18 2.6101e-18 2.0396e-18 3.0916e-18 9.4691e-19 8.7381e-19 7.3388e-19 1.6158e-18 1.4161e-18 1.3827e-18 1.3591e-18 6.8474e-19 5.6534e-19 4.2787e-19 3.6338e-19 4.1261e-19 3.5308e-19 2.2880e-19 2.7942e-20 1.8183e-20 5.3969e-21 3.8208e-20 
3.5481e+07 9.2611e-19 1.7180e-18 2.9574e-18 2.5381e-18 1.9953e-18 3.0049e-18 9.3203e-19 8.5883e-19 7.2207e-19 1.5719e-18 1.3837e-18 1.3773e-18 1.3784e-18 6.9859e-19 5.7547e-19 4.3668e-19 3.7020e-19 4.1611e-19 3.5665e-19 2.3103e-19 3.2166e-20 2.1310e-20 5.7447e-21 3.7870e-20 
3.9811e+07 8.9112e-19 1.6548e-18 2.8852e-18 2.4673e-18 1.9506e-18 2.9192e-18 9.1657e-19 8.4325e-19 7.0968e-19 1.5282e-18 1.3516e-18 1.3705e-18 1.3924e-18 7.0937e-19 5.8333e-19 4.4379e-19 3.7575e-19 4.1820e-19 3.5929e-19 2.3277e-19 3.6672e-20 2.4672e-20 6.1133e-21 3.7563e-20 
4.4668e+07 8.5794e-19 1.5937e-18 2.8141e-18 2.3978e-18 1.9060e-18 2.8345e-18 9.0069e-19 8.2722e-19 6.9685e-19 1.4849e-18 1.3193e-18 1.3623e-18 1.4014e-18 7.1724e-19 5.8902e-19 4.4922e-19 3.8000e-19 4.1891e-19 3.6099e-19 2.3406e-19 4.1403e-20 2.8227e-20 6.5038e-21 3.7120e-20 
5.0119e+07 8.2644e-19 1.5347e-18 2.7440e-18 2.3298e-18 1.8614e-18 2.7511e-18 8.8451e-19 8.1088e-19 6.8369e-19 1.4421e-18 1.2868e-18 1.3530e-18 1.4055e-18 7.2237e-19 5.9268e-19 4.5304e-19 3.8300e-19 4.1832e-19 3.6179e-19 2.3497e-19 4.6300e-20 3.1931e-20 6.9171e-21 3.6417e-20 
5.6234e+07 7.9646e-19 1.4778e-18 2.6752e-18 2.2632e-18 1.8172e-18 2.6692e-18 8.6815e-19 7.9434e-19 6.7030e-19 1.4000e-18 1.2544e-18 1.3426e-18 1.4050e-18 7.2496e-19 5.9447e-19 4.5534e-19 3.8478e-19 4.1650e-19 3.6172e-19 2.3559e-19 5.1299e-20 3.5738e-20 7.3540e-21 3.5405e-20 
6.3096e+07 7.6790e-19 1.4228e-18 2.6076e-18 2.1983e-18 1.7734e-18 2.5888e-18 8.5168e-19 7.7770e-19 6.5678e-19 1.3585e-18 1.2221e-18 1.3313e-18 1.4003e-18 7.2521e-19 5.9454e-19 4.5622e-19 3.8542e-19 4.1355e-19 3.6082e-19 2.3586e-19 5.6337e-20 3.9122e-20 7.8160e-21 3.3900e-20 
7.0795e+07 7.4066e-19 1.3698e-18 2.5414e-18 2.1350e-18 1.7301e-18 2.5102e-18 8.3521e-19 7.6105e-19 6.4319e-19 1.3178e-18 1.1901e-18 1.3192e-18 1.3915e-18 7.2340e-19 5.9307e-19 4.5580e-19 3.8498e-19 4.0956e-19 3.5914e-19 2.3572e-19 6.1353e-20 4.2332e-20 8.3043e-21 3.2140e-20 
7.9433e+07 7.1463e-19 1.3186e-18 2.4766e-18 2.0733e-18 1.6875e-18 2.4333e-18 8.1879e-19 7.4445e-19 6.2962e-19 1.2780e-18 1.1584e-18 1.3065e-18 1.3792e-18 7.1983e-19 5.9024e-19 4.5420e-19 3.8357e-19 4.0464e-19 3.5674e-19 2.3521e-19 6.6288e-20 4.5770e-20 8.8202e-21 3.0436e-20 
8.9125e+07 6.8974e-19 1.2693e-18 2.4133e-18 2.0132e-18 1.6455e-18 2.3583e-18 8.0248e-19 7.2797e-19 6.1610e-19 1.2391e-18 1.1271e-18 1.2933e-18 1.3636e-18 7.1458e-19 5.8619e-19 4.5156e-19 3.8127e-19 3.9890e-19 3.5369e-19 2.3436e-19 7.1089e-20 4.8752e-20 9.3654e-21 2.8650e-20 
1.0000e+08 6.6590e-19 1.2218e-18 2.3513e-18 1.9548e-18 1.6044e-18 2.2852e-18 7.8632e-19 7.1166e-19 6.0270e-19 1.2011e-18 1.0963e-18 1.2796e-18 1.3451e-18 7.0788e-19 5.8110e-19 4.4801e-19 3.7819e-19 3.9245e-19 3.5006e-19 2.3318e-19 7.5708e-20 5.1566e-20 9.9405e-21 2.7001e-20 
1.1220e+08 6.4305e-19 1.1759e-18 2.2909e-18 1.8980e-18 1.5640e-18 2.2140e-18 7.7037e-19 6.9557e-19 5.8944e-19 1.1641e-18 1.0660e-18 1.2656e-18 1.3241e-18 6.9991e-19 5.7509e-19 4.4365e-19 3.7442e-19 3.8538e-19 3.4591e-19 2.3174e-19 8.0105e-20 5.4195e-20 1.0546e-20 2.5547e-20 
1.2589e+08 6.2113e-19 1.1318e-18 2.2319e-18 1.8429e-18 1.5245e-18 2.1448e-18 7.5464e-19 6.7972e-19 5.7637e-19 1.1281e-18 1.0363e-18 1.2513e-18 1.3009e-18 6.9087e-19 5.6832e-19 4.3862e-19 3.7006e-19 3.7780e-19 3.4130e-19 2.3004e-19 8.4248e-20 5.6627e-20 1.1183e-20 2.4316e-20 
1.4125e+08 6.0009e-19 1.0892e-18 2.1744e-18 1.7893e-18 1.4859e-18 2.0775e-18 7.3916e-19 6.6414e-19 5.6351e-19 1.0930e-18 1.0073e-18 1.2369e-18 1.2758e-18 6.8094e-19 5.6091e-19 4.3301e-19 3.6520e-19 3.6979e-19 3.3629e-19 2.2800e-19 8.8112e-20 5.8857e-20 1.1852e-20 2.3316e-20 
1.5849e+08 5.7986e-19 1.0482e-18 2.1184e-18 1.7373e-18 1.4481e-18 2.0122e-18 7.2395e-19 6.4886e-19 5.5088e-19 1.0590e-18 9.7889e-19 1.2224e-18 1.2492e-18 6.7028e-19 5.5300e-19 4.2693e-19 3.5992e-19 3.6145e-19 3.3096e-19 2.2563e-19 9.1680e-20 6.0883e-20 1.2555e-20 2.2542e-20 
1.7783e+08 5.6042e-19 1.0088e-18 2.0638e-18 1.6869e-18 1.4113e-18 1.9488e-18 7.0903e-19 6.3389e-19 5.3849e-19 1.0260e-18 9.5117e-19 1.2078e-18 1.2214e-18 6.5902e-19 5.4474e-19 4.2047e-19 3.5430e-19 3.5284e-19 3.2535e-19 2.2296e-19 9.4942e-20 6.2707e-20 1.3294e-20 2.1981e-20 
1.9953e+08 5.4170e-19 9.7073e-19 2.0106e-18 1.6379e-18 1.3754e-18 1.8874e-18 6.9441e-19 6.1924e-19 5.2636e-19 9.9398e-19 9.2415e-19 1.1931e-18 1.1925e-18 6.4729e-19 5.3614e-19 4.1372e-19 3.4841e-19 3.4404e-19 3.1952e-19 2.1999e-19 9.7898e-20 6.4331e-20 1.4068e-20 2.1618e-20 
2.2387e+08 5.2369e-19 9.3412e-19 1.9588e-18 1.5905e-18 1.3404e-18 1.8278e-18 6.8009e-19 6.0493e-19 5.1450e-19 9.6296e-19 8.9783e-19 1.1785e-18 1.1629e-18 6.3522e-19 5.2729e-19 4.0675e-19 3.4233e-19 3.3513e-19 3.1353e-19 2.1674e-19 1.0056e-19 6.5770e-20 1.4880e-20 2.1436e-20 
2.5119e+08 5.0634e-19 8.9887e-19 1.9084e-18 1.5444e-18 1.3063e-18 1.7701e-18 6.6608e-19 5.9096e-19 5.0292e-19 9.3293e-19 8.7223e-19 1.1640e-18 1.1328e-18 6.2291e-19 5.1827e-19 3.9963e-19 3.3611e-19 3.2615e-19 3.0741e-19 2.1324e-19 1.0293e-19 6.7035e-20 1.5734e-20 2.1424e-20 
2.8184e+08 4.8962e-19 8.6494e-19 1.8594e-18 1.4998e-18 1.2730e-18 1.7143e-18 6.5238e-19 5.7732e-19 4.9161e-19 9.0387e-19 8.4735e-19 1.1496e-18 1.1024e-18 6.1043e-19 5.0913e-19 3.9241e-19 3.2980e-19 3.1716e-19 3.0122e-19 2.0949e-19 1.0503e-19 6.8143e-20 1.6636e-20 2.1572e-20 
3.1623e+08 4.7350e-19 8.3227e-19 1.8116e-18 1.4565e-18 1.2407e-18 1.6603e-18 6.3899e-19 5.6403e-19 4.8058e-19 8.7577e-19 8.2319e-19 1.1354e-18 1.0718e-18 5.9788e-19 4.9994e-19 3.8515e-19 3.2346e-19 3.0821e-19 2.9500e-19 2.0553e-19 1.0688e-19 6.9109e-20 1.7588e-20 2.1867e-20 
