3.1623e+03 1.6502e-30 1.5135e-21 2.0039e-24 5.8590e-21 1.1646e-23 1.7487e-23 2.5337e-23 3.4109e-23 2.9790e-23 6.8600e-24 9.0024e-31 
3.5481e+03 1.6523e-30 1.4479e-21 2.0920e-24 5.8603e-21 1.2150e-23 1.8284e-23 2.6458e-23 3.5671e-23 2.8806e-23 7.2802e-24 9.0841e-31 
3.9811e+03 1.6588e-30 1.3937e-21 2.1840e-24 5.8762e-21 1.2674e-23 1.9116e-23 2.7622e-23 3.7291e-23 2.7910e-23 7.7266e-24 9.1833e-31 
4.4668e+03 1.6627e-30 1.3778e-21 2.2799e-24 5.8073e-21 1.3218e-23 1.9985e-23 2.8832e-23 3.8972e-23 2.7101e-23 8.2009e-24 9.3036e-31 
5.0119e+03 1.6774e-30 1.3992e-21 2.3800e-24 5.7820e-21 1.3785e-23 2.0891e-23 3.0089e-23 4.0714e-23 2.6377e-23 8.7048e-24 9.4504e-31 
5.6234e+03 1.7081e-30 1.4754e-21 2.4843e-24 5.8311e-21 1.4374e-23 2.1836e-23 3.1395e-23 4.2520e-23 2.5737e-23 9.2403e-24 9.7129e-31 
6.3096e+03 1.7650e-30 1.6252e-21 2.5932e-24 5.9957e-21 1.4988e-23 2.2821e-23 3.2752e-23 4.4390e-23 2.5180e-23 9.8093e-24 1.5210e-30 
7.0795e+03 1.9607e-30 1.8789e-21 2.7068e-24 6.2382e-21 1.5627e-23 2.3850e-23 3.4161e-23 4.6328e-23 2.4705e-23 1.0414e-23 2.3800e-29 
7.9433e+03 8.4202e-29 2.2415e-21 2.8252e-24 6.6900e-21 1.6292e-23 2.4934e-23 3.5628e-23 4.8334e-23 2.4311e-23 1.1057e-23 7.6423e-28 
8.9125e+03 7.5087e-28 2.7220e-21 2.9487e-24 7.3972e-21 1.6985e-23 2.6137e-23 3.7179e-23 5.0410e-23 2.3999e-23 1.1740e-23 1.5612e-26 
1.0000e+04 5.4378e-27 3.3214e-21 3.0775e-24 8.3959e-21 1.7707e-23 2.7732e-23 3.8970e-23 5.2559e-23 2.3766e-23 1.2467e-23 2.4676e-25 
1.1220e+04 3.3001e-26 4.0425e-21 3.2118e-24 9.6588e-21 1.8463e-23 3.0731e-23 4.1741e-23 5.4783e-23 2.3615e-23 1.3239e-23 3.0216e-24 
1.2589e+04 1.7106e-25 4.8662e-21 3.3518e-24 1.1215e-20 1.9281e-23 3.8219e-23 4.8381e-23 5.7083e-23 2.3544e-23 1.4060e-23 2.8868e-23 
1.4125e+04 7.6983e-25 5.7737e-21 3.4977e-24 1.3039e-20 2.0305e-23 5.8165e-23 6.8197e-23 5.9462e-23 2.3554e-23 1.4933e-23 2.1440e-22 
1.5849e+04 3.0443e-24 6.7434e-21 3.6498e-24 1.5087e-20 2.2196e-23 1.0827e-22 1.2634e-22 6.1922e-23 2.3646e-23 1.5862e-23 1.1521e-21 
1.7783e+04 1.0678e-23 7.7626e-21 3.8084e-24 1.7259e-20 2.7433e-23 2.2299e-22 2.8080e-22 6.4465e-23 2.3820e-23 1.6850e-23 3.7324e-21 
1.9953e+04 3.3488e-23 8.8271e-21 3.9737e-24 1.9532e-20 4.3597e-23 4.5707e-22 6.4706e-22 6.7095e-23 2.4079e-23 1.7901e-23 6.8838e-21 
2.2387e+04 9.4612e-23 9.9832e-21 4.1461e-24 2.1863e-20 9.0986e-23 8.9834e-22 1.4262e-21 6.9813e-23 2.4423e-23 1.9018e-23 9.1880e-21 
2.5119e+04 2.4263e-22 1.1380e-20 4.3303e-24 2.4256e-20 2.1686e-22 1.6756e-21 2.9273e-21 7.2622e-23 2.4854e-23 2.0208e-23 1.1032e-20 
2.8184e+04 5.6904e-22 1.3357e-20 4.5439e-24 2.6753e-20 5.1891e-22 2.9735e-21 5.5720e-21 7.5525e-23 2.5375e-23 2.1473e-23 1.3161e-20 
3.1623e+04 1.2296e-21 1.6550e-20 4.8781e-24 2.9605e-20 1.1786e-21 5.0559e-21 9.8727e-21 7.8525e-23 2.5988e-23 2.2820e-23 1.6343e-20 
3.5481e+04 2.4659e-21 2.2000e-20 5.8895e-24 3.3176e-20 2.5013e-21 8.2959e-21 1.6382e-20 8.1625e-23 2.6695e-23 2.4253e-23 2.1454e-20 
3.9811e+04 4.6210e-21 3.1206e-20 9.3208e-24 3.8000e-20 4.9539e-21 1.3208e-20 2.5620e-20 8.4828e-23 2.7501e-23 2.5778e-23 2.9190e-20 
4.4668e+04 8.1444e-21 4.6082e-20 2.0918e-23 4.4732e-20 9.1885e-21 2.0447e-20 3.7999e-20 8.8138e-23 2.8408e-23 2.7402e-23 3.9145e-20 
5.0119e+04 1.3581e-20 6.8880e-20 5.6634e-23 5.4145e-20 1.6033e-20 3.0786e-20 5.3754e-20 9.1558e-23 2.9421e-23 2.9131e-23 4.8915e-20 
5.6234e+04 2.1547e-20 1.0193e-19 1.5545e-22 6.6973e-20 2.6442e-20 4.5044e-20 7.2901e-20 9.5091e-23 3.0544e-23 3.0972e-23 5.4943e-20 
6.3096e+04 3.2686e-20 1.4739e-19 4.0202e-22 8.3829e-20 4.1404e-20 6.3979e-20 9.5223e-20 9.8742e-23 3.1782e-23 3.2932e-23 5.5510e-20 
7.0795e+04 4.7626e-20 2.0695e-19 9.6119e-22 1.0508e-19 6.1819e-20 8.8167e-20 1.2029e-19 1.0251e-22 3.3140e-23 3.5019e-23 5.2281e-20 
7.9433e+04 6.6932e-20 2.8176e-19 2.1228e-21 1.3092e-19 8.8374e-20 1.1825e-19 1.4751e-19 1.0641e-22 3.4625e-23 3.7242e-23 4.9509e-20 
8.9125e+04 9.1058e-20 3.7224e-19 4.3504e-21 1.6125e-19 1.2143e-19 1.5400e-19 1.7618e-19 1.1044e-22 3.6241e-23 3.9610e-23 5.3586e-20 
1.0000e+05 1.2032e-19 4.7804e-19 8.3229e-21 1.9575e-19 1.6099e-19 1.9492e-19 2.0554e-19 1.1460e-22 3.7998e-23 4.2133e-23 7.2842e-20 
1.1220e+05 1.5489e-19 5.9790e-19 1.4955e-20 2.3443e-19 2.0668e-19 2.4021e-19 2.3486e-19 1.1890e-22 3.9896e-23 4.4820e-23 1.1382e-19 
1.2589e+05 1.9474e-19 7.3056e-19 2.5386e-20 2.7651e-19 2.5779e-19 2.8881e-19 2.6347e-19 1.2335e-22 4.1948e-23 4.7684e-23 1.7479e-19 
1.4125e+05 2.3973e-19 8.7416e-19 4.0934e-20 3.2172e-19 3.1344e-19 3.3952e-19 2.9081e-19 1.2794e-22 4.4164e-23 5.0735e-23 2.4679e-19 
1.5849e+05 2.8954e-19 1.0266e-18 6.3009e-20 3.6995e-19 3.7266e-19 3.9110e-19 3.1648e-19 1.3269e-22 4.6553e-23 5.3987e-23 3.2167e-19 
1.7783e+05 3.4373e-19 1.1857e-18 9.3016e-20 4.2133e-19 4.3451e-19 4.4242e-19 3.4024e-19 1.3760e-22 4.9124e-23 5.7453e-23 3.9629e-19 
1.9953e+05 4.0176e-19 1.3493e-18 1.3223e-19 4.7618e-19 4.9819e-19 4.9323e-19 3.6205e-19 1.4268e-22 5.1889e-23 6.1147e-23 4.7044e-19 
2.2387e+05 4.6302e-19 1.5154e-18 1.8171e-19 5.3498e-19 5.6308e-19 5.4221e-19 3.8208e-19 1.4793e-22 5.4859e-23 6.5085e-23 5.4358e-19 
2.5119e+05 5.2684e-19 1.6821e-18 2.4218e-19 5.9825e-19 6.2876e-19 5.8877e-19 4.0063e-19 1.5336e-22 5.8048e-23 6.9284e-23 6.1304e-19 
2.8184e+05 5.9251e-19 1.8476e-18 3.1402e-19 6.6650e-19 6.9502e-19 6.3261e-19 4.1814e-19 1.5898e-22 6.1471e-23 7.3759e-23 6.7319e-19 
3.1623e+05 6.5929e-19 2.0103e-18 3.9722e-19 7.4012e-19 7.6177e-19 6.7367e-19 4.3512e-19 1.6479e-22 6.5141e-23 7.8532e-23 7.1336e-19 
3.5481e+05 7.2645e-19 2.1688e-18 4.9137e-19 8.1935e-19 8.2906e-19 7.1201e-19 4.5207e-19 1.7080e-22 6.9073e-23 8.3621e-23 7.0925e-19 
3.9811e+05 7.9327e-19 2.3219e-18 5.9574e-19 9.0418e-19 8.9696e-19 7.4628e-19 4.6941e-19 1.7703e-22 7.3285e-23 8.9047e-23 6.1308e-19 
4.4668e+05 8.5905e-19 2.4683e-18 7.0930e-19 9.9438e-19 9.6558e-19 7.7804e-19 4.8748e-19 1.8347e-22 7.7793e-23 9.4834e-23 4.1931e-19 
5.0119e+05 9.2310e-19 2.6069e-18 8.3079e-19 1.0895e-18 1.0349e-18 8.0794e-19 5.0645e-19 1.9016e-22 8.2617e-23 1.0100e-22 2.3413e-19 
5.6234e+05 9.8479e-19 2.7370e-18 9.5878e-19 1.1888e-18 1.1051e-18 8.3642e-19 5.2638e-19 1.9720e-22 8.7786e-23 1.0759e-22 1.2343e-19 
6.3096e+05 1.0435e-18 2.8575e-18 1.0917e-18 1.2916e-18 1.1758e-18 8.6389e-19 5.4714e-19 2.0493e-22 9.3368e-23 1.1461e-22 6.7773e-20 
7.0795e+05 1.0987e-18 2.9678e-18 1.2280e-18 1.3967e-18 1.2470e-18 8.9073e-19 5.6855e-19 2.1459e-22 9.9588e-23 1.2209e-22 3.9840e-20 
7.9433e+05 1.1500e-18 3.0674e-18 1.3661e-18 1.5033e-18 1.3183e-18 9.1446e-19 5.9029e-19 2.2968e-22 1.0717e-22 1.3008e-22 2.5024e-20 
8.9125e+05 1.1968e-18 3.1557e-18 1.5043e-18 1.6101e-18 1.3893e-18 9.3762e-19 6.1203e-19 2.5876e-22 1.1823e-22 1.3859e-22 1.6703e-20 
1.0000e+06 1.2388e-18 3.2324e-18 1.6411e-18 1.7161e-18 1.4596e-18 9.6090e-19 6.3341e-19 3.1980e-22 1.3800e-22 1.4767e-22 1.1828e-20 
1.1220e+06 1.2758e-18 3.2974e-18 1.7752e-18 1.8203e-18 1.5286e-18 9.8445e-19 6.5407e-19 4.4583e-22 1.7781e-22 1.5735e-22 8.9390e-21 
1.2589e+06 1.3074e-18 3.3505e-18 1.9050e-18 1.9214e-18 1.5957e-18 1.0083e-18 6.7370e-19 6.9051e-22 2.5910e-22 1.6768e-22 7.3075e-21 
1.4125e+06 1.3337e-18 3.3920e-18 2.0294e-18 2.0187e-18 1.6603e-18 1.0326e-18 6.9200e-19 1.1316e-21 4.1775e-22 1.7869e-22 6.5649e-21 
1.5849e+06 1.3544e-18 3.4219e-18 2.1472e-18 2.1111e-18 1.7218e-18 1.0571e-18 7.0874e-19 1.8708e-21 7.0758e-22 1.9042e-22 6.5229e-21 
1.7783e+06 1.3697e-18 3.4408e-18 2.2574e-18 2.1978e-18 1.7796e-18 1.0819e-18 7.2372e-19 3.0286e-21 1.2017e-21 2.0292e-22 7.0704e-21 
1.9953e+06 1.3795e-18 3.4490e-18 2.3592e-18 2.2781e-18 1.8332e-18 1.0998e-18 7.3679e-19 4.7349e-21 1.9896e-21 2.1624e-22 8.1052e-21 
2.2387e+06 1.3840e-18 3.4471e-18 2.4520e-18 2.3514e-18 1.8820e-18 1.1166e-18 7.4786e-19 7.1183e-21 3.1714e-21 2.3044e-22 9.4894e-21 
2.5119e+06 1.3834e-18 3.4357e-18 2.5350e-18 2.4171e-18 1.9255e-18 1.1330e-18 7.5687e-19 1.0294e-20 4.8489e-21 2.4555e-22 1.1022e-20 
2.8184e+06 1.3779e-18 3.4156e-18 2.6081e-18 2.4748e-18 1.9636e-18 1.1488e-18 7.6377e-19 1.4356e-20 7.1159e-21 2.6164e-22 1.2409e-20 
3.1623e+06 1.3677e-18 3.3874e-18 2.6709e-18 2.5243e-18 1.9958e-18 1.1640e-18 7.6859e-19 1.9369e-20 1.0049e-20 2.7876e-22 1.3265e-20 
3.5481e+06 1.3532e-18 3.3519e-18 2.7234e-18 2.5654e-18 2.0221e-18 1.1785e-18 7.7136e-19 2.5368e-20 1.3700e-20 2.9697e-22 1.3267e-20 
3.9811e+06 1.3347e-18 3.3099e-18 2.7656e-18 2.5979e-18 2.0423e-18 1.1834e-18 7.7212e-19 3.2359e-20 1.8091e-20 3.1632e-22 1.2404e-20 
4.4668e+06 1.3125e-18 3.2621e-18 2.7979e-18 2.6220e-18 2.0565e-18 1.1860e-18 7.7095e-19 4.0322e-20 2.3217e-20 3.3689e-22 1.0991e-20 
5.0119e+06 1.2871e-18 3.2092e-18 2.8205e-18 2.6378e-18 2.0648e-18 1.1876e-18 7.6795e-19 4.9210e-20 2.9042e-20 3.5872e-22 9.4213e-21 
5.6234e+06 1.2587e-18 3.1518e-18 2.8339e-18 2.6456e-18 2.0674e-18 1.1883e-18 7.6322e-19 5.8957e-20 3.5505e-20 3.8188e-22 7.9530e-21 
6.3096e+06 1.2279e-18 3.0908e-18 2.8385e-18 2.6457e-18 2.0644e-18 1.1881e-18 7.5688e-19 6.9480e-20 4.2528e-20 4.0644e-22 6.6930e-21 
7.0795e+06 1.1950e-18 3.0266e-18 2.8350e-18 2.6385e-18 2.0562e-18 1.1873e-18 7.4905e-19 8.0679e-20 5.0013e-20 4.3246e-22 5.6558e-21 
7.9433e+06 1.1605e-18 2.9599e-18 2.8240e-18 2.6245e-18 2.0432e-18 1.1760e-18 7.3986e-19 9.2440e-20 5.7855e-20 4.6001e-22 4.8173e-21 
8.9125e+06 1.1248e-18 2.8912e-18 2.8062e-18 2.6041e-18 2.0257e-18 1.1624e-18 7.2944e-19 1.0464e-19 6.5941e-20 4.8914e-22 4.1438e-21 
1.0000e+07 1.0882e-18 2.8210e-18 2.7822e-18 2.5781e-18 2.0041e-18 1.1483e-18 7.1794e-19 1.1714e-19 7.3663e-20 5.1993e-22 3.5834e-21 
1.1220e+07 1.0512e-18 2.7496e-18 2.7527e-18 2.5468e-18 1.9787e-18 1.1340e-18 7.0548e-19 1.2979e-19 8.0358e-20 5.5244e-22 3.1055e-21 
1.2589e+07 1.0140e-18 2.6775e-18 2.7184e-18 2.5109e-18 1.9501e-18 1.1195e-18 6.9218e-19 1.4245e-19 8.7501e-20 5.8675e-22 2.7441e-21 
1.4125e+07 9.7711e-19 2.6051e-18 2.6798e-18 2.4710e-18 1.9185e-18 1.1050e-18 6.7819e-19 1.5497e-19 9.3569e-20 6.2290e-22 2.4398e-21 
1.5849e+07 9.4064e-19 2.5327e-18 2.6376e-18 2.4275e-18 1.8844e-18 1.0908e-18 6.6361e-19 1.6720e-19 9.9181e-20 6.6098e-22 2.1979e-21 
1.7783e+07 9.0488e-19 2.4604e-18 2.5923e-18 2.3811e-18 1.8481e-18 1.0769e-18 6.4857e-19 1.7898e-19 1.0429e-19 7.0107e-22 2.0062e-21 
1.9953e+07 8.7002e-19 2.3887e-18 2.5445e-18 2.3321e-18 1.8100e-18 1.0543e-18 6.3315e-19 1.9019e-19 1.0887e-19 7.4323e-22 1.8553e-21 
2.2387e+07 8.3619e-19 2.3176e-18 2.4946e-18 2.2811e-18 1.7704e-18 1.0313e-18 6.1746e-19 2.0069e-19 1.1290e-19 7.8751e-22 1.7380e-21 
2.5119e+07 8.0351e-19 2.2473e-18 2.4430e-18 2.2285e-18 1.7295e-18 1.0089e-18 6.0160e-19 2.1038e-19 1.1636e-19 8.3402e-22 1.6485e-21 
2.8184e+07 7.7205e-19 2.1780e-18 2.3903e-18 2.1747e-18 1.6878e-18 9.8722e-19 5.8563e-19 2.1917e-19 1.1926e-19 8.8284e-22 1.5823e-21 
3.1623e+07 7.4185e-19 2.1099e-18 2.3366e-18 2.1200e-18 1.6454e-18 9.6646e-19 5.6963e-19 2.2699e-19 1.2160e-19 9.3407e-22 1.5359e-21 
3.5481e+07 7.1292e-19 2.0430e-18 2.2823e-18 2.0647e-18 1.6025e-18 9.4664e-19 5.5366e-19 2.3379e-19 1.2340e-19 9.8770e-22 1.5063e-21 
3.9811e+07 6.8524e-19 1.9774e-18 2.2278e-18 2.0092e-18 1.5593e-18 9.2171e-19 5.3779e-19 2.3954e-19 1.2469e-19 1.0439e-21 1.4913e-21 
4.4668e+07 6.5880e-19 1.9133e-18 2.1731e-18 1.9537e-18 1.5161e-18 8.9693e-19 5.2205e-19 2.4422e-19 1.2549e-19 1.1029e-21 1.4893e-21 
5.0119e+07 6.3356e-19 1.8505e-18 2.1187e-18 1.8984e-18 1.4730e-18 8.7323e-19 5.0649e-19 2.4786e-19 1.2584e-19 1.1648e-21 1.4986e-21 
5.6234e+07 6.0947e-19 1.7893e-18 2.0645e-18 1.8434e-18 1.4302e-18 8.5065e-19 4.9116e-19 2.5047e-19 1.2576e-19 1.2297e-21 1.5184e-21 
6.3096e+07 5.8648e-19 1.7296e-18 2.0109e-18 1.7890e-18 1.3876e-18 8.2921e-19 4.7607e-19 2.5209e-19 1.2531e-19 1.2979e-21 1.5475e-21 
7.0795e+07 5.6454e-19 1.6714e-18 1.9578e-18 1.7353e-18 1.3456e-18 8.0894e-19 4.6126e-19 2.5279e-19 1.2451e-19 1.3695e-21 1.5853e-21 
7.9433e+07 5.4359e-19 1.6148e-18 1.9055e-18 1.6824e-18 1.3041e-18 7.8032e-19 4.4675e-19 2.5261e-19 1.2341e-19 1.4445e-21 1.6311e-21 
8.9125e+07 5.2357e-19 1.5597e-18 1.8540e-18 1.6304e-18 1.2633e-18 7.5121e-19 4.3255e-19 2.5164e-19 1.2205e-19 1.5231e-21 1.6844e-21 
1.0000e+08 5.0445e-19 1.5062e-18 1.8034e-18 1.5794e-18 1.2231e-18 7.2322e-19 4.1868e-19 2.4994e-19 1.2046e-19 1.6056e-21 1.7450e-21 
1.1220e+08 4.8615e-19 1.4543e-18 1.7538e-18 1.5295e-18 1.1837e-18 6.9632e-19 4.0515e-19 2.4758e-19 1.1868e-19 1.6922e-21 1.8126e-21 
1.2589e+08 4.6864e-19 1.4039e-18 1.7051e-18 1.4806e-18 1.1451e-18 6.7048e-19 3.9197e-19 2.4465e-19 1.1673e-19 1.7834e-21 1.8873e-21 
1.4125e+08 4.5188e-19 1.3550e-18 1.6576e-18 1.4329e-18 1.1074e-18 6.4568e-19 3.7914e-19 2.4121e-19 1.1466e-19 1.8791e-21 1.9688e-21 
1.5849e+08 4.3581e-19 1.3077e-18 1.6110e-18 1.3864e-18 1.0705e-18 6.2188e-19 3.6667e-19 2.3733e-19 1.1249e-19 1.9801e-21 2.0574e-21 
1.7783e+08 4.2040e-19 1.2618e-18 1.5656e-18 1.3410e-18 1.0346e-18 5.9904e-19 3.5456e-19 2.3309e-19 1.1024e-19 2.0868e-21 2.1534e-21 
1.9953e+08 4.0561e-19 1.2173e-18 1.5213e-18 1.2969e-18 9.9950e-19 5.7714e-19 3.4280e-19 2.2854e-19 1.0794e-19 2.1998e-21 2.2571e-21 
2.2387e+08 3.9142e-19 1.1743e-18 1.4781e-18 1.2540e-18 9.6536e-19 5.5615e-19 3.3140e-19 2.2375e-19 1.0561e-19 2.3198e-21 2.3691e-21 
2.5119e+08 3.7778e-19 1.1327e-18 1.4360e-18 1.2123e-18 9.3214e-19 5.3602e-19 3.2036e-19 2.1876e-19 1.0327e-19 2.4475e-21 2.4899e-21 
2.8184e+08 3.6467e-19 1.0924e-18 1.3950e-18 1.1718e-18 8.9985e-19 5.1674e-19 3.0966e-19 2.1362e-19 1.0093e-19 2.5835e-21 2.6199e-21 
3.1623e+08 3.5207e-19 1.0535e-18 1.3551e-18 1.1325e-18 8.6849e-19 4.9826e-19 2.9931e-19 2.0838e-19 9.8603e-20 2.7287e-21 2.7600e-21 
