3.1623e+03 1.1494e-24 4.4064e-25 1.6914e-24 3.9541e-24 1.9041e-21 3.3722e-20 2.4783e-23 4.5348e-21 4.9692e-21 6.1064e-23 9.5709e-23 9.1777e-23 3.5963e-23 1.4159e-23 1.1494e-24 
3.5481e+03 4.0728e-24 9.6294e-25 1.7601e-24 4.0989e-24 2.1301e-21 3.6946e-20 2.5895e-23 4.8336e-21 5.9078e-21 6.3857e-23 9.9044e-23 9.6221e-23 3.5457e-23 1.5022e-23 4.0721e-24 
3.9811e+03 1.3833e-23 3.5099e-24 1.8648e-24 4.2480e-24 2.3394e-21 3.9852e-20 2.7053e-23 5.1005e-21 6.8349e-21 6.6770e-23 1.0251e-22 1.0085e-22 3.5052e-23 1.5937e-23 1.3813e-23 
4.4668e+03 3.8406e-23 1.4056e-23 2.2183e-24 4.4014e-24 2.5273e-21 4.1954e-20 2.8260e-23 5.3312e-21 7.7150e-21 6.9807e-23 1.0613e-22 1.0566e-22 3.4750e-23 1.6909e-23 3.8086e-23 
5.0119e+03 9.8056e-23 5.1312e-23 3.9889e-24 4.5595e-24 2.6906e-21 4.3563e-20 2.9522e-23 5.5231e-21 8.5159e-21 7.2973e-23 1.0988e-22 1.1066e-22 3.4553e-23 1.7942e-23 9.4804e-23 
5.6234e+03 2.2811e-22 1.6538e-22 1.2297e-23 4.7224e-24 2.8271e-21 4.4667e-20 3.0854e-23 5.6747e-21 9.2107e-21 7.6274e-23 1.1379e-22 1.1586e-22 3.4462e-23 1.9038e-23 2.1182e-22 
6.3096e+03 4.9433e-22 4.7308e-22 4.5425e-23 4.8902e-24 2.9361e-21 4.5270e-20 3.2328e-23 5.7863e-21 9.7787e-21 7.9714e-23 1.1785e-22 1.2127e-22 3.4480e-23 2.0203e-23 4.8194e-22 
7.0795e+03 1.0103e-21 1.1850e-21 1.5757e-22 5.0633e-24 3.0176e-21 4.4945e-20 3.4205e-23 5.8601e-21 1.0206e-20 8.3300e-23 1.2208e-22 1.2688e-22 3.4608e-23 2.1440e-23 1.1547e-21 
7.9433e+03 1.9669e-21 2.6494e-21 4.8436e-22 5.2419e-24 3.0728e-21 4.4114e-20 3.7296e-23 5.9009e-21 1.0484e-20 8.7036e-23 1.2647e-22 1.3271e-22 3.4849e-23 2.2754e-23 2.6029e-21 
8.9125e+03 3.6752e-21 5.4667e-21 1.3166e-21 5.4263e-24 3.1031e-21 4.2826e-20 4.3729e-23 5.9161e-21 1.0612e-20 9.0929e-23 1.3104e-22 1.3875e-22 3.5206e-23 2.4150e-23 5.4124e-21 
1.0000e+04 6.6252e-21 1.0522e-20 3.1953e-21 5.6168e-24 3.1107e-21 4.1139e-20 5.8280e-23 5.9172e-21 1.0593e-20 9.4984e-23 1.3579e-22 1.4503e-22 3.5680e-23 2.5634e-23 1.0457e-20 
1.1220e+04 1.1554e-20 1.9046e-20 7.0719e-21 5.8137e-24 3.0979e-21 3.9347e-20 9.0256e-23 5.9187e-21 1.0433e-20 9.9207e-23 1.4072e-22 1.5154e-22 3.6276e-23 2.7210e-23 1.8964e-20 
1.2589e+04 1.9514e-20 3.2658e-20 1.4303e-20 6.0173e-24 3.0670e-21 3.7306e-20 1.5561e-22 5.9385e-21 1.0143e-20 1.0361e-22 1.4586e-22 1.5828e-22 3.6995e-23 2.8885e-23 3.2548e-20 
1.4125e+04 3.1919e-20 5.3359e-20 2.6705e-20 6.2281e-24 3.0206e-21 3.5074e-20 2.7863e-22 5.9956e-21 9.7353e-21 1.0821e-22 1.5121e-22 1.6528e-22 3.7843e-23 3.0665e-23 5.3207e-20 
1.5849e+04 5.0559e-20 8.3437e-20 4.6451e-20 6.4464e-24 2.9610e-21 3.2724e-20 4.9239e-22 6.1084e-21 9.7441e-21 1.1312e-22 1.5692e-22 1.7252e-22 3.8822e-23 3.2557e-23 8.3220e-20 
1.7783e+04 7.7557e-20 1.2532e-19 7.5904e-20 6.6728e-24 2.8906e-21 3.1101e-20 8.3743e-22 6.2924e-21 1.0401e-20 1.1866e-22 1.6358e-22 1.8003e-22 3.9938e-23 3.4568e-23 1.2495e-19 
1.9953e+04 1.1528e-19 1.8125e-19 1.1740e-19 6.9076e-24 2.8174e-21 2.9452e-20 1.3583e-21 6.5584e-21 1.1051e-20 1.2593e-22 1.7346e-22 1.8780e-22 4.1196e-23 3.6705e-23 1.8045e-19 
2.2387e+04 1.6617e-19 2.4870e-19 1.7215e-19 7.1514e-24 2.7762e-21 2.7784e-20 2.0987e-21 6.9115e-21 1.1696e-20 1.3777e-22 1.9395e-22 1.9585e-22 4.2600e-23 3.8978e-23 2.4667e-19 
2.5119e+04 2.3261e-19 3.3141e-19 2.4191e-19 7.4047e-24 2.7293e-21 2.6095e-20 3.0952e-21 7.3510e-21 1.2337e-20 1.6065e-22 2.4489e-22 2.0417e-22 4.4157e-23 4.1395e-23 3.2604e-19 
2.8184e+04 3.1670e-19 4.3006e-19 3.2758e-19 7.6680e-24 2.6775e-21 2.5340e-20 4.3726e-21 7.8717e-21 1.2981e-20 2.0745e-22 3.7196e-22 2.1279e-22 4.5873e-23 4.3965e-23 4.1624e-19 
3.1623e+04 4.2010e-19 5.4447e-19 4.2947e-19 7.9421e-24 2.6218e-21 2.4574e-20 5.9405e-21 8.4669e-21 1.3646e-20 3.0115e-22 6.6579e-22 2.2171e-22 4.7756e-23 4.6698e-23 5.0800e-19 
3.5481e+04 5.4390e-19 6.7607e-19 5.4734e-19 8.2277e-24 2.5631e-21 2.3773e-20 7.7957e-21 9.1336e-21 1.4351e-20 4.7989e-22 1.2834e-21 2.3094e-22 4.9813e-23 4.9604e-23 5.6572e-19 
3.9811e+04 6.8851e-19 8.2560e-19 6.8044e-19 8.5256e-24 2.5029e-21 2.2913e-20 9.9323e-21 9.8819e-21 1.5034e-20 8.0477e-22 2.4642e-21 2.4048e-22 5.2053e-23 5.2696e-23 5.0386e-19 
4.4668e+04 8.5365e-19 9.8839e-19 8.2210e-19 8.8394e-24 2.4444e-21 2.2800e-20 1.2361e-20 1.0751e-20 1.5896e-20 1.3728e-21 4.5314e-21 2.5035e-22 5.4485e-23 5.5985e-23 3.2205e-19 
5.0119e+04 1.0383e-18 1.1618e-18 9.7393e-19 9.1912e-24 2.3960e-21 2.2647e-20 1.5140e-20 1.1829e-20 1.7063e-20 2.3371e-21 7.8718e-21 2.6055e-22 5.7119e-23 5.9484e-23 1.6669e-19 
5.6234e+04 1.2408e-18 1.3429e-18 1.1337e-18 9.7074e-24 2.3760e-21 2.2486e-20 1.8406e-20 1.3279e-20 1.8723e-20 3.9323e-21 1.2893e-20 2.7110e-22 5.9966e-23 6.3206e-23 8.2859e-20 
6.3096e+04 1.4590e-18 1.5247e-18 1.2992e-18 1.0977e-23 2.4137e-21 2.2395e-20 2.2403e-20 1.5355e-20 2.1135e-20 6.4978e-21 1.9966e-20 2.8200e-22 6.3037e-23 6.7168e-23 4.2720e-20 
7.0795e+04 1.6902e-18 1.7034e-18 1.4678e-18 1.5238e-23 2.5750e-21 2.3051e-20 2.7485e-20 1.8416e-20 2.4192e-20 1.0487e-20 2.9362e-20 2.9327e-22 6.6344e-23 7.1384e-23 2.3287e-20 
7.9433e+04 1.9313e-18 1.8823e-18 1.6372e-18 3.0948e-23 2.9614e-21 2.4127e-20 3.4099e-20 2.2910e-20 2.8752e-20 1.6451e-20 4.1208e-20 3.0492e-22 6.9903e-23 7.5872e-23 1.3448e-20 
8.9125e+04 2.1792e-18 2.0661e-18 1.7938e-18 7.9777e-23 3.7043e-21 2.5875e-20 4.2730e-20 2.9341e-20 3.5293e-20 2.4985e-20 5.5452e-20 3.1695e-22 7.3726e-23 8.0648e-23 8.2044e-21 
1.0000e+05 2.4306e-18 2.2462e-18 1.9447e-18 2.1428e-22 4.9650e-21 2.8576e-20 5.3832e-20 3.8217e-20 4.4262e-20 3.6653e-20 7.1865e-20 3.2939e-22 7.7829e-23 8.5733e-23 5.4253e-21 
1.1220e+05 2.6820e-18 2.4205e-18 2.0884e-18 5.4672e-22 6.9198e-21 3.3060e-20 6.7749e-20 4.9982e-20 5.5800e-20 5.1891e-20 9.0065e-20 3.4224e-22 8.2227e-23 9.1147e-23 4.1222e-21 
1.2589e+05 2.9305e-18 2.5872e-18 2.2240e-18 1.2888e-21 9.7471e-21 3.9029e-20 8.4650e-20 6.4945e-20 7.0205e-20 7.0931e-20 1.0956e-19 3.5551e-22 8.6941e-23 9.6912e-23 3.9808e-21 
1.4125e+05 3.1728e-18 2.7677e-18 2.3508e-18 2.8009e-21 1.3619e-20 4.6646e-20 1.0449e-19 8.3235e-20 8.7708e-20 9.3739e-20 1.2958e-19 3.6922e-22 9.1989e-23 1.0305e-22 5.1774e-21 
1.5849e+05 3.4064e-18 2.9684e-18 2.4681e-18 5.6395e-21 1.8706e-20 5.5994e-20 1.2702e-19 1.0476e-19 1.0818e-19 1.2000e-19 1.4936e-19 3.8339e-22 9.7393e-23 1.0959e-22 8.3771e-21 
1.7783e+05 3.6288e-18 3.1574e-18 2.5505e-18 1.0592e-20 2.5208e-20 6.7095e-20 1.5177e-19 1.2922e-19 1.3135e-19 1.4915e-19 1.6858e-19 3.9802e-22 1.0317e-22 1.1655e-22 1.4666e-20 
1.9953e+05 3.8379e-18 3.3329e-18 2.6218e-18 1.8683e-20 3.3390e-20 7.9949e-20 1.7818e-19 1.5611e-19 1.5639e-19 1.8039e-19 1.8675e-19 4.1314e-22 1.0936e-22 1.2397e-22 2.5191e-20 
2.2387e+05 4.0320e-18 3.4939e-18 2.6831e-18 3.1147e-20 4.3660e-20 9.4601e-20 2.0562e-19 1.8481e-19 1.8292e-19 2.1281e-19 2.0351e-19 4.2876e-22 1.1596e-22 1.3187e-22 4.0618e-20 
2.5119e+05 4.2096e-18 3.6393e-18 2.7355e-18 4.9362e-20 5.6605e-20 1.1122e-19 2.3351e-19 2.1463e-19 2.1039e-19 2.4547e-19 2.1859e-19 4.4489e-22 1.2303e-22 1.4029e-22 6.1465e-20 
2.8184e+05 4.3698e-18 3.7684e-18 2.7804e-18 7.4763e-20 7.3031e-20 1.3015e-19 2.6142e-19 2.4490e-19 2.3817e-19 2.7752e-19 2.3181e-19 4.6155e-22 1.3058e-22 1.4926e-22 8.8589e-20 
3.1623e+05 4.5119e-18 3.8809e-18 2.8188e-18 1.0873e-19 9.3964e-20 1.5196e-19 2.8915e-19 2.7508e-19 2.6557e-19 3.0809e-19 2.4312e-19 4.7876e-22 1.3865e-22 1.5883e-22 1.2268e-19 
3.5481e+05 4.6354e-18 3.9767e-18 2.7869e-18 1.5249e-19 1.2060e-19 1.7744e-19 3.1676e-19 3.0479e-19 2.9199e-19 3.3659e-19 2.5255e-19 4.9654e-22 1.4726e-22 1.6902e-22 1.6426e-19 
3.9811e+05 4.7401e-18 4.0563e-18 2.7479e-18 2.0703e-19 1.5425e-19 2.0755e-19 3.4464e-19 3.3390e-19 3.1726e-19 3.6273e-19 2.6022e-19 5.1491e-22 1.5646e-22 1.7988e-22 2.1430e-19 
4.4668e+05 4.8262e-18 4.1198e-18 2.7036e-18 2.7303e-19 1.9620e-19 2.4337e-19 3.7342e-19 3.6252e-19 3.4162e-19 3.8678e-19 2.6634e-19 5.3388e-22 1.6629e-22 1.9145e-22 2.7272e-19 
5.0119e+05 4.8937e-18 4.1681e-18 2.6550e-18 3.5081e-19 2.4761e-19 2.8595e-19 4.0397e-19 3.9100e-19 3.6521e-19 4.0814e-19 2.7118e-19 5.5348e-22 1.7678e-22 2.0380e-22 3.3575e-19 
5.6234e+05 4.9431e-18 4.2018e-18 2.6034e-18 4.4032e-19 3.0942e-19 3.3625e-19 4.3725e-19 4.1986e-19 3.8826e-19 4.2684e-19 2.7449e-19 5.7374e-22 1.8798e-22 2.1695e-22 3.9649e-19 
6.3096e+05 4.9748e-18 4.2216e-18 2.5498e-18 5.4117e-19 3.8244e-19 3.9503e-19 4.7425e-19 4.4975e-19 4.1104e-19 4.4317e-19 2.7699e-19 5.9466e-22 1.9994e-22 2.3098e-22 4.4884e-19 
7.0795e+05 4.9891e-18 4.2286e-18 2.4951e-18 6.5261e-19 4.6692e-19 4.6272e-19 5.1589e-19 4.8135e-19 4.3430e-19 4.5748e-19 2.7930e-19 6.1629e-22 2.1271e-22 2.4594e-22 4.9035e-19 
7.9433e+05 4.9866e-18 4.2235e-18 2.4400e-18 7.7357e-19 5.6260e-19 5.3946e-19 5.6287e-19 5.1531e-19 4.5794e-19 4.7022e-19 2.8180e-19 6.3864e-22 2.2633e-22 2.6189e-22 5.2158e-19 
8.9125e+05 4.9678e-18 4.2074e-18 2.3851e-18 9.0274e-19 6.6901e-19 6.2502e-19 6.1568e-19 5.5219e-19 4.8167e-19 4.8186e-19 2.8483e-19 6.6175e-22 2.4087e-22 2.7890e-22 5.4384e-19 
1.0000e+06 4.9332e-18 4.1812e-18 2.3308e-18 1.0385e-18 7.8534e-19 7.1886e-19 6.7587e-19 5.9238e-19 5.0609e-19 4.9284e-19 2.8865e-19 6.8564e-22 2.5639e-22 2.9704e-22 5.5721e-19 
1.1220e+06 4.8833e-18 4.1458e-18 2.2775e-18 1.1793e-18 9.1052e-19 8.2015e-19 7.4382e-19 6.3637e-19 5.3252e-19 5.0361e-19 2.9342e-19 7.1037e-22 2.7295e-22 3.1639e-22 5.5645e-19 
1.2589e+06 4.8187e-18 4.1022e-18 2.2253e-18 1.3231e-18 1.0433e-18 9.2783e-19 8.1758e-19 6.8651e-19 5.6125e-19 5.1450e-19 2.9922e-19 7.3606e-22 2.9065e-22 3.3702e-22 5.2331e-19 
1.4125e+06 4.7398e-18 4.0511e-18 2.1744e-18 1.4681e-18 1.1822e-18 1.0407e-18 8.9655e-19 7.4062e-19 5.9095e-19 5.2583e-19 3.0603e-19 7.6309e-22 3.0963e-22 3.5902e-22 4.3069e-19 
1.5849e+06 4.6474e-18 3.9936e-18 2.1248e-18 1.6123e-18 1.3260e-18 1.1575e-18 9.8001e-19 7.9805e-19 6.2332e-19 5.3784e-19 3.1376e-19 7.9266e-22 3.3029e-22 3.8249e-22 2.9584e-19 
1.7783e+06 4.5421e-18 3.9303e-18 2.0765e-18 1.7540e-18 1.4729e-18 1.2768e-18 1.0671e-18 8.5829e-19 6.5827e-19 5.5081e-19 3.2226e-19 8.2800e-22 3.5369e-22 4.0752e-22 1.7952e-19 
1.9953e+06 4.4249e-18 3.8620e-18 2.0293e-18 1.8914e-18 1.6217e-18 1.3974e-18 1.1569e-18 9.2077e-19 6.9559e-19 5.6475e-19 3.3135e-19 8.7659e-22 3.8255e-22 4.3421e-22 1.0682e-19 
2.2387e+06 4.2966e-18 3.7895e-18 1.9833e-18 2.0229e-18 1.7709e-18 1.5180e-18 1.2481e-18 9.8484e-19 7.3497e-19 5.7964e-19 3.4088e-19 9.5357e-22 4.2301e-22 4.6267e-22 6.6454e-20 
2.5119e+06 4.1585e-18 3.7133e-18 1.9383e-18 2.1470e-18 1.9191e-18 1.6375e-18 1.3398e-18 1.0498e-18 7.7600e-19 5.9542e-19 3.5069e-19 1.0856e-21 4.8729e-22 4.9302e-22 4.4191e-20 
2.8184e+06 4.0119e-18 3.6341e-18 1.8939e-18 2.2627e-18 2.0648e-18 1.7546e-18 1.4310e-18 1.1150e-18 8.1820e-19 6.1208e-19 3.6060e-19 1.3147e-21 5.9679e-22 5.2538e-22 3.1563e-20 
3.1623e+06 3.8582e-18 3.5525e-18 1.8503e-18 2.3689e-18 2.2069e-18 1.8686e-18 1.5209e-18 1.1797e-18 8.6105e-19 6.2946e-19 3.7049e-19 1.6993e-21 7.8508e-22 5.5988e-22 2.4231e-20 
3.5481e+06 3.6990e-18 3.4690e-18 1.8071e-18 2.4650e-18 2.3445e-18 1.9783e-18 1.6084e-18 1.2432e-18 9.0365e-19 6.4742e-19 3.8019e-19 2.3135e-21 1.0995e-21 5.9664e-22 1.9993e-20 
3.9811e+06 3.5461e-18 3.3840e-18 1.7643e-18 2.5503e-18 2.4764e-18 2.0832e-18 1.6928e-18 1.3048e-18 9.4536e-19 6.6579e-19 3.8964e-19 3.2415e-21 1.6003e-21 6.3582e-22 1.7698e-20 
4.4668e+06 3.3821e-18 3.2979e-18 1.7217e-18 2.6247e-18 2.6018e-18 2.1824e-18 1.7734e-18 1.3640e-18 9.8614e-19 6.8433e-19 3.9871e-19 4.5707e-21 2.3576e-21 6.7756e-22 1.6707e-20 
5.0119e+06 3.2304e-18 3.2112e-18 1.6792e-18 2.6881e-18 2.7196e-18 2.2753e-18 1.8497e-18 1.4203e-18 1.0254e-18 7.0282e-19 4.0725e-19 6.3830e-21 3.4453e-21 7.2201e-22 1.6633e-20 
5.6234e+06 3.0723e-18 3.1242e-18 1.6369e-18 2.7405e-18 2.8291e-18 2.3614e-18 1.9210e-18 1.4730e-18 1.0624e-18 7.2098e-19 4.1520e-19 8.7472e-21 4.9341e-21 7.6934e-22 1.7212e-20 
6.3096e+06 2.9142e-18 3.0372e-18 1.5946e-18 2.7824e-18 2.9295e-18 2.4401e-18 1.9867e-18 1.5224e-18 1.0970e-18 7.3860e-19 4.2252e-19 1.1713e-20 6.8844e-21 8.1970e-22 1.8220e-20 
7.0795e+06 2.7606e-18 2.9505e-18 1.5523e-18 2.8139e-18 3.0201e-18 2.5111e-18 2.0464e-18 1.5679e-18 1.1287e-18 7.5544e-19 4.2920e-19 1.5310e-20 9.3401e-21 8.7328e-22 1.9417e-20 
7.9433e+06 2.6127e-18 2.8643e-18 1.5101e-18 2.8358e-18 3.1005e-18 2.5739e-18 2.0996e-18 1.6087e-18 1.1572e-18 7.7128e-19 4.3519e-19 1.9546e-20 1.2325e-20 9.3025e-22 2.0503e-20 
8.9125e+06 2.4712e-18 2.7788e-18 1.4681e-18 2.8484e-18 3.1701e-18 2.6284e-18 2.1462e-18 1.6445e-18 1.1823e-18 7.8591e-19 4.4047e-19 2.4409e-20 1.5841e-20 9.9079e-22 2.1126e-20 
1.0000e+07 2.3368e-18 2.6943e-18 1.4262e-18 2.8526e-18 3.2287e-18 2.6742e-18 2.1857e-18 1.6752e-18 1.2038e-18 7.9916e-19 4.4512e-19 2.9873e-20 1.9869e-20 1.0551e-21 2.0989e-20 
1.1220e+07 2.2100e-18 2.6108e-18 1.3845e-18 2.8489e-18 3.2761e-18 2.7113e-18 2.2182e-18 1.7007e-18 1.2215e-18 8.1085e-19 4.4895e-19 3.5900e-20 2.4370e-20 1.1233e-21 2.0020e-20 
1.2589e+07 2.0908e-18 2.5286e-18 1.3431e-18 2.8380e-18 3.3123e-18 2.7396e-18 2.2436e-18 1.7210e-18 1.2355e-18 8.2087e-19 4.5222e-19 4.2445e-20 2.9289e-20 1.1957e-21 1.8418e-20 
1.4125e+07 1.9793e-18 2.4478e-18 1.3022e-18 2.8207e-18 3.3372e-18 2.7591e-18 2.2619e-18 1.7362e-18 1.2456e-18 8.2912e-19 4.5467e-19 4.9455e-20 3.4557e-20 1.2724e-21 1.6510e-20 
1.5849e+07 1.8753e-18 2.3685e-18 1.2617e-18 2.7975e-18 3.3512e-18 2.7699e-18 2.2732e-18 1.7463e-18 1.2520e-18 8.3556e-19 4.5629e-19 5.6875e-20 4.0099e-20 1.3536e-21 1.4586e-20 
1.7783e+07 1.7786e-18 2.2906e-18 1.2217e-18 2.7692e-18 3.3546e-18 2.7723e-18 2.2778e-18 1.7516e-18 1.2547e-18 8.4083e-19 4.5704e-19 6.4646e-20 4.5823e-20 1.4395e-21 1.2815e-20 
1.9953e+07 1.6889e-18 2.2145e-18 1.1824e-18 2.7364e-18 3.3479e-18 2.7666e-18 2.2757e-18 1.7522e-18 1.2538e-18 8.4417e-19 4.5706e-19 7.2707e-20 5.1650e-20 1.5303e-21 1.1272e-20 
2.2387e+07 1.6057e-18 2.1400e-18 1.1437e-18 2.6996e-18 3.3315e-18 2.7531e-18 2.2675e-18 1.7485e-18 1.2496e-18 8.4563e-19 4.5633e-19 8.0994e-20 5.6533e-20 1.6263e-21 9.8391e-21 
2.5119e+07 1.5286e-18 2.0672e-18 1.1059e-18 2.6593e-18 3.3063e-18 2.7322e-18 2.2534e-18 1.7406e-18 1.2423e-18 8.4527e-19 4.5474e-19 8.9439e-20 6.1499e-20 1.7275e-21 8.6902e-21 
2.8184e+07 1.4571e-18 1.9963e-18 1.0688e-18 2.6162e-18 3.2727e-18 2.7045e-18 2.2338e-18 1.7290e-18 1.2320e-18 8.4316e-19 4.5242e-19 9.7972e-20 6.6101e-20 1.8343e-21 7.7401e-21 
3.1623e+07 1.3907e-18 1.9271e-18 1.0326e-18 2.5707e-18 3.2316e-18 2.6705e-18 2.2093e-18 1.7140e-18 1.2191e-18 8.3940e-19 4.4941e-19 1.0652e-19 7.0189e-20 1.9467e-21 6.9555e-21 
3.5481e+07 1.3290e-18 1.8597e-18 9.9734e-19 2.5231e-18 3.1836e-18 2.6308e-18 2.1802e-18 1.6958e-18 1.2038e-18 8.3410e-19 4.4562e-19 1.1500e-19 7.3917e-20 2.0652e-21 6.3252e-21 
3.9811e+07 1.2716e-18 1.7941e-18 9.6302e-19 2.4739e-18 3.1298e-18 2.5859e-18 2.1471e-18 1.6749e-18 1.1864e-18 8.2739e-19 4.4113e-19 1.2334e-19 7.7259e-20 2.1898e-21 5.8230e-21 
4.4668e+07 1.2180e-18 1.7304e-18 9.2963e-19 2.4234e-18 3.0708e-18 2.5366e-18 2.1105e-18 1.6515e-18 1.1672e-18 8.1937e-19 4.3595e-19 1.3145e-19 8.0204e-20 2.3207e-21 5.4274e-21 
5.0119e+07 1.1680e-18 1.6685e-18 8.9722e-19 2.3719e-18 3.0075e-18 2.4833e-18 2.0707e-18 1.6260e-18 1.1463e-18 8.1018e-19 4.3015e-19 1.3926e-19 8.2744e-20 2.4582e-21 5.1208e-21 
5.6234e+07 1.1211e-18 1.6084e-18 8.6582e-19 2.3198e-18 2.9405e-18 2.4268e-18 2.0283e-18 1.5987e-18 1.1241e-18 7.9994e-19 4.2378e-19 1.4668e-19 8.4883e-20 2.6027e-21 4.8892e-21 
6.3096e+07 1.0771e-18 1.5501e-18 8.3542e-19 2.2672e-18 2.8706e-18 2.3676e-18 1.9837e-18 1.5698e-18 1.1007e-18 7.8878e-19 4.1692e-19 1.5365e-19 8.6630e-20 2.7545e-21 4.7212e-21 
7.0795e+07 1.0357e-18 1.4935e-18 8.0599e-19 2.2145e-18 2.7984e-18 2.3062e-18 1.9374e-18 1.5397e-18 1.0764e-18 7.7681e-19 4.0961e-19 1.6008e-19 8.7999e-20 2.9141e-21 4.6081e-21 
7.9433e+07 9.9665e-19 1.4387e-18 7.7754e-19 2.1617e-18 2.7245e-18 2.2431e-18 1.8897e-18 1.5085e-18 1.0513e-18 7.6415e-19 4.0198e-19 1.6593e-19 8.9011e-20 3.0817e-21 4.5424e-21 
8.9125e+07 9.5971e-19 1.3857e-18 7.5007e-19 2.1090e-18 2.6494e-18 2.1789e-18 1.8409e-18 1.4765e-18 1.0257e-18 7.5090e-19 3.9415e-19 1.7113e-19 8.9688e-20 3.2576e-21 4.5183e-21 
1.0000e+08 9.2472e-19 1.3343e-18 7.2357e-19 2.0566e-18 2.5736e-18 2.1139e-18 1.7914e-18 1.4440e-18 9.9974e-19 7.3717e-19 3.8604e-19 1.7565e-19 9.0057e-20 3.4423e-21 4.5308e-21 
1.1220e+08 8.9150e-19 1.2846e-18 6.9799e-19 2.0047e-18 2.4976e-18 2.0485e-18 1.7418e-18 1.4110e-18 9.7352e-19 7.2304e-19 3.7778e-19 1.7946e-19 9.0144e-20 3.6355e-21 4.5758e-21 
1.2589e+08 8.5990e-19 1.2366e-18 6.7333e-19 1.9533e-18 2.4216e-18 1.9831e-18 1.6921e-18 1.3779e-18 9.4719e-19 7.0861e-19 3.6954e-19 1.8254e-19 8.9980e-20 3.8377e-21 4.6500e-21 
1.4125e+08 8.2980e-19 1.1902e-18 6.4957e-19 1.9025e-18 2.3461e-18 1.9180e-18 1.6424e-18 1.3448e-18 9.2086e-19 6.9395e-19 3.6116e-19 1.8488e-19 8.9593e-20 4.0499e-21 4.7518e-21 
1.5849e+08 8.0106e-19 1.1453e-18 6.2669e-19 1.8524e-18 2.2713e-18 1.8534e-18 1.5929e-18 1.3117e-18 8.9464e-19 6.7914e-19 3.5269e-19 1.8650e-19 8.9010e-20 4.2730e-21 4.8792e-21 
1.7783e+08 7.7360e-19 1.1019e-18 6.0465e-19 1.8031e-18 2.1974e-18 1.7896e-18 1.5438e-18 1.2788e-18 8.6861e-19 6.6423e-19 3.4417e-19 1.8742e-19 8.8262e-20 4.5073e-21 5.0308e-21 
1.9953e+08 7.4732e-19 1.0601e-18 5.8343e-19 1.7547e-18 2.1247e-18 1.7268e-18 1.4952e-18 1.2462e-18 8.4285e-19 6.4930e-19 3.3563e-19 1.8766e-19 8.7374e-20 4.7538e-21 5.2057e-21 
2.2387e+08 7.2213e-19 1.0197e-18 5.6301e-19 1.7071e-18 2.0533e-18 1.6651e-18 1.4473e-18 1.2138e-18 8.1743e-19 6.3437e-19 3.2713e-19 1.8726e-19 8.6371e-20 5.0142e-21 5.4041e-21 
2.5119e+08 6.9797e-19 9.8072e-19 5.4336e-19 1.6604e-18 1.9834e-18 1.6047e-18 1.4002e-18 1.1818e-18 7.9239e-19 6.1952e-19 3.1868e-19 1.8627e-19 8.5278e-20 5.2900e-21 5.6262e-21 
2.8184e+08 6.7477e-19 9.4313e-19 5.2445e-19 1.6147e-18 1.9150e-18 1.5456e-18 1.3539e-18 1.1503e-18 7.6779e-19 6.0476e-19 3.1031e-19 1.8474e-19 8.4117e-20 5.5830e-21 5.8726e-21 
3.1623e+08 6.5248e-19 9.0688e-19 5.0625e-19 1.5699e-18 1.8483e-18 1.4880e-18 1.3086e-18 1.1192e-18 7.4366e-19 5.9015e-19 3.0205e-19 1.8272e-19 8.2906e-20 5.8951e-21 6.1444e-21 
