3.1623e+03 4.7927e-24 1.0965e-21 3.6086e-21 6.0864e-24 1.0414e-23 1.6127e-23 3.1393e-24 4.1861e-24 4.7927e-24 
3.5481e+03 1.3124e-23 1.1879e-21 3.4405e-21 6.3636e-24 1.0871e-23 1.6833e-23 3.3302e-24 4.4437e-24 1.3124e-23 
3.9811e+03 3.2463e-23 1.3676e-21 3.2775e-21 6.6528e-24 1.1345e-23 1.7564e-23 3.5331e-24 4.7174e-24 3.2463e-23 
4.4668e+03 7.3369e-23 1.6707e-21 3.1200e-21 6.9551e-24 1.1837e-23 1.8321e-23 3.7488e-24 5.0084e-24 7.3369e-23 
5.0119e+03 1.5299e-22 2.1333e-21 2.9683e-21 7.2790e-24 1.2350e-23 1.9103e-23 3.9782e-24 5.3177e-24 1.5299e-22 
5.6234e+03 2.9235e-22 2.7881e-21 2.8226e-21 7.6754e-24 1.2888e-23 1.9913e-23 4.2221e-24 5.6464e-24 2.9235e-22 
6.3096e+03 5.2519e-22 3.6532e-21 2.6835e-21 8.3946e-24 1.3492e-23 2.0750e-23 4.4814e-24 5.9960e-24 5.2519e-22 
7.0795e+03 8.9303e-22 4.7354e-21 2.5525e-21 1.0403e-23 1.4412e-23 2.1615e-23 4.7572e-24 6.3676e-24 8.9303e-22 
7.9433e+03 1.4351e-21 6.0413e-21 2.4335e-21 1.7106e-23 1.6874e-23 2.2510e-23 5.0506e-24 6.7628e-24 1.4351e-21 
8.9125e+03 2.1930e-21 7.5564e-21 2.3357e-21 3.7771e-23 2.5724e-23 2.3435e-23 5.3627e-24 7.1830e-24 2.1933e-21 
1.0000e+04 3.2266e-21 9.2612e-21 2.2781e-21 9.3677e-23 5.6746e-23 2.4390e-23 5.6946e-24 7.6299e-24 3.2300e-21 
1.1220e+04 4.5072e-21 1.1137e-20 2.2948e-21 2.2615e-22 1.5299e-22 2.5378e-23 6.0479e-24 8.1053e-24 4.5347e-21 
1.2589e+04 6.1202e-21 1.3171e-20 2.4417e-21 5.0369e-22 4.1435e-22 2.6398e-23 6.4237e-24 8.6110e-24 6.2915e-21 
1.4125e+04 8.1133e-21 1.5378e-20 2.8040e-21 1.0490e-21 1.0408e-21 2.7452e-23 6.8236e-24 9.1490e-24 8.9106e-21 
1.5849e+04 1.0454e-20 1.7790e-20 3.5054e-21 2.0225e-21 2.3817e-21 2.8541e-23 7.2493e-24 9.7214e-24 1.2924e-20 
1.7783e+04 1.3161e-20 2.0463e-20 4.7219e-21 3.6276e-21 4.9741e-21 2.9666e-23 7.7024e-24 1.0330e-23 1.7792e-20 
1.9953e+04 1.6450e-20 2.3536e-20 6.7000e-21 6.1245e-21 9.5496e-21 3.0828e-23 8.1847e-24 1.0979e-23 2.2333e-20 
2.2387e+04 2.0176e-20 2.7247e-20 9.7803e-21 9.8802e-21 1.6992e-20 3.2028e-23 8.6981e-24 1.1669e-23 2.6677e-20 
2.5119e+04 2.4918e-20 3.1956e-20 1.4417e-20 1.5428e-20 2.8246e-20 3.3269e-23 9.2448e-24 1.2403e-23 3.1635e-20 
2.8184e+04 3.1167e-20 3.8204e-20 2.1194e-20 2.3370e-20 4.4185e-20 3.4550e-23 9.8270e-24 1.3185e-23 3.7921e-20 
3.1623e+04 3.9226e-20 4.6696e-20 3.0793e-20 3.4526e-20 6.5475e-20 3.5874e-23 1.0447e-23 1.4017e-23 4.6239e-20 
3.5481e+04 4.9691e-20 5.8315e-20 4.3969e-20 4.9857e-20 9.2455e-20 3.7242e-23 1.1107e-23 1.4903e-23 5.7386e-20 
3.9811e+04 6.3884e-20 7.4142e-20 6.1576e-20 7.0421e-20 1.2507e-19 3.8655e-23 1.1811e-23 1.5847e-23 7.2376e-20 
4.4668e+04 8.2886e-20 9.5542e-20 8.4370e-20 9.7204e-20 1.6285e-19 4.0116e-23 1.2560e-23 1.6852e-23 9.2567e-20 
5.0119e+04 1.0773e-19 1.2370e-19 1.1295e-19 1.3101e-19 2.0497e-19 4.1625e-23 1.3358e-23 1.7922e-23 1.1910e-19 
5.6234e+04 1.3223e-19 1.6005e-19 1.4766e-19 1.7231e-19 2.5020e-19 4.3186e-23 1.4209e-23 1.9062e-23 1.5283e-19 
6.3096e+04 1.6158e-19 2.0587e-19 1.8855e-19 2.2112e-19 2.9735e-19 4.4800e-23 1.5115e-23 2.0277e-23 1.9387e-19 
7.0795e+04 1.9617e-19 2.6210e-19 2.3532e-19 2.7736e-19 3.4515e-19 4.6468e-23 1.6081e-23 2.1571e-23 2.4223e-19 
7.9433e+04 2.3634e-19 3.2939e-19 2.8718e-19 3.4006e-19 3.9238e-19 4.8194e-23 1.7111e-23 2.2950e-23 2.9833e-19 
8.9125e+04 2.8232e-19 4.0808e-19 3.4236e-19 4.0806e-19 4.3805e-19 4.9978e-23 1.8208e-23 2.4420e-23 3.6251e-19 
1.0000e+05 3.3427e-19 4.9811e-19 3.9980e-19 4.8011e-19 4.8141e-19 5.1825e-23 1.9378e-23 2.5986e-23 4.3529e-19 
1.1220e+05 3.9227e-19 5.9911e-19 4.5947e-19 5.5488e-19 5.2200e-19 5.3736e-23 2.0625e-23 2.7655e-23 5.1537e-19 
1.2589e+05 4.5632e-19 7.1037e-19 5.2078e-19 6.2871e-19 5.5958e-19 5.5713e-23 2.1954e-23 2.9434e-23 5.9586e-19 
1.4125e+05 5.2633e-19 8.3112e-19 5.8325e-19 7.0054e-19 5.9299e-19 5.7761e-23 2.3372e-23 3.1331e-23 6.6443e-19 
1.5849e+05 6.0217e-19 9.6139e-19 6.4657e-19 7.7050e-19 6.2373e-19 5.9881e-23 2.4884e-23 3.3353e-23 6.8807e-19 
1.7783e+05 6.8362e-19 1.0975e-18 7.1062e-19 8.3799e-19 6.5226e-19 6.2077e-23 2.6496e-23 3.5509e-23 5.9686e-19 
1.9953e+05 7.7042e-19 1.2396e-18 7.7540e-19 9.0331e-19 6.7913e-19 6.4352e-23 2.8215e-23 3.7808e-23 3.8978e-19 
2.2387e+05 8.6227e-19 1.3864e-18 8.4095e-19 9.6627e-19 7.0482e-19 6.6709e-23 3.0048e-23 4.0259e-23 2.0567e-19 
2.5119e+05 9.5881e-19 1.5367e-18 9.0731e-19 1.0268e-18 7.2959e-19 6.9155e-23 3.2003e-23 4.2873e-23 1.0358e-19 
2.8184e+05 1.0596e-18 1.6892e-18 9.7473e-19 1.0850e-18 7.5115e-19 7.1704e-23 3.4089e-23 4.5661e-23 5.4355e-20 
3.1623e+05 1.1643e-18 1.8427e-18 1.0441e-18 1.1403e-18 7.7246e-19 7.4424e-23 3.6317e-23 4.8633e-23 3.0433e-20 
3.5481e+05 1.2723e-18 1.9959e-18 1.1142e-18 1.1944e-18 7.9365e-19 7.7610e-23 3.8717e-23 5.1804e-23 1.8131e-20 
3.9811e+05 1.3831e-18 2.1477e-18 1.1832e-18 1.2482e-18 8.1475e-19 8.2330e-23 4.1403e-23 5.5185e-23 1.1407e-20 
4.4668e+05 1.4962e-18 2.2969e-18 1.2524e-18 1.3008e-18 8.3571e-19 9.1825e-23 4.4792e-23 5.8792e-23 7.5350e-21 
5.0119e+05 1.6108e-18 2.4424e-18 1.3215e-18 1.3519e-18 8.5638e-19 1.1442e-22 5.0242e-23 6.2638e-23 5.2225e-21 
5.6234e+05 1.7263e-18 2.5831e-18 1.3900e-18 1.4015e-18 8.7284e-19 1.6845e-22 6.1492e-23 6.6739e-23 3.8145e-21 
6.3096e+05 1.8420e-18 2.7179e-18 1.4571e-18 1.4492e-18 8.8895e-19 2.8912e-22 8.7406e-23 7.1113e-23 3.0187e-21 
7.0795e+05 1.9569e-18 2.8457e-18 1.5224e-18 1.4949e-18 9.0467e-19 5.3590e-22 1.4622e-22 7.5777e-23 2.6875e-21 
7.9433e+05 2.0702e-18 2.9656e-18 1.5850e-18 1.5383e-18 9.2001e-19 9.9839e-22 2.7088e-22 8.0750e-23 2.7741e-21 
8.9125e+05 2.1811e-18 3.0767e-18 1.6446e-18 1.5791e-18 9.3499e-19 1.7979e-21 5.1436e-22 8.6052e-23 3.2757e-21 
1.0000e+06 2.2884e-18 3.1782e-18 1.7003e-18 1.6170e-18 9.4966e-19 3.0833e-21 9.5311e-22 9.1703e-23 4.1729e-21 
1.1220e+06 2.3913e-18 3.2694e-18 1.7516e-18 1.6517e-18 9.6411e-19 5.0213e-21 1.6869e-21 9.7724e-23 5.3794e-21 
1.2589e+06 2.4887e-18 3.3497e-18 1.7981e-18 1.6828e-18 9.7794e-19 7.7825e-21 2.8345e-21 1.0414e-22 6.7365e-21 
1.4125e+06 2.5797e-18 3.4186e-18 1.8394e-18 1.7100e-18 9.8388e-19 1.1527e-20 4.5247e-21 1.1097e-22 8.0155e-21 
1.5849e+06 2.6632e-18 3.4760e-18 1.8750e-18 1.7375e-18 9.8967e-19 1.6390e-20 6.8852e-21 1.1825e-22 8.9066e-21 
1.7783e+06 2.7384e-18 3.5217e-18 1.9048e-18 1.7607e-18 9.9548e-19 2.2474e-20 1.0026e-20 1.2599e-22 9.0842e-21 
1.9953e+06 2.8044e-18 3.5558e-18 1.9286e-18 1.7795e-18 1.0015e-18 2.9843e-20 1.4036e-20 1.3423e-22 8.4947e-21 
2.2387e+06 2.8606e-18 3.5784e-18 1.9464e-18 1.7935e-18 1.0079e-18 3.8522e-20 1.8968e-20 1.4299e-22 7.4254e-21 
2.5119e+06 2.9064e-18 3.5899e-18 1.9582e-18 1.8030e-18 1.0143e-18 4.8497e-20 2.4842e-20 1.5230e-22 6.2366e-21 
2.8184e+06 2.9414e-18 3.5907e-18 1.9641e-18 1.8078e-18 1.0118e-18 5.9721e-20 3.1637e-20 1.6219e-22 5.1490e-21 
3.1623e+06 2.9654e-18 3.5814e-18 1.9643e-18 1.8082e-18 1.0099e-18 7.2116e-20 3.9300e-20 1.7269e-22 4.2398e-21 
3.5481e+06 2.9782e-18 3.5626e-18 1.9591e-18 1.8042e-18 1.0085e-18 8.5579e-20 4.7747e-20 1.8383e-22 3.5093e-21 
3.9811e+06 2.9800e-18 3.5350e-18 1.9488e-18 1.7961e-18 1.0079e-18 9.9982e-20 5.6873e-20 1.9563e-22 2.9309e-21 
4.4668e+06 2.9711e-18 3.4995e-18 1.9338e-18 1.7841e-18 1.0080e-18 1.1518e-19 6.6553e-20 2.0813e-22 2.4742e-21 
5.0119e+06 2.9519e-18 3.4567e-18 1.9145e-18 1.7686e-18 1.0089e-18 1.3100e-19 7.6650e-20 2.2136e-22 2.1126e-21 
5.6234e+06 2.9230e-18 3.4075e-18 1.8913e-18 1.7497e-18 9.9910e-19 1.4728e-19 8.7022e-20 2.3535e-22 1.8247e-21 
6.3096e+06 2.8852e-18 3.3525e-18 1.8646e-18 1.7278e-18 9.9012e-19 1.6381e-19 9.6192e-20 2.5013e-22 1.5764e-21 
7.0795e+06 2.8391e-18 3.2927e-18 1.8348e-18 1.7032e-18 9.8193e-19 1.8040e-19 1.0458e-19 2.6573e-22 1.3734e-21 
7.9433e+06 2.7858e-18 3.2286e-18 1.8025e-18 1.6763e-18 9.7455e-19 1.9685e-19 1.1358e-19 2.8219e-22 1.2207e-21 
8.9125e+06 2.7260e-18 3.1610e-18 1.7678e-18 1.6472e-18 9.6796e-19 2.1296e-19 1.2113e-19 2.9953e-22 1.0917e-21 
1.0000e+07 2.6608e-18 3.0905e-18 1.7313e-18 1.6163e-18 9.6214e-19 2.2853e-19 1.2809e-19 3.1779e-22 9.8921e-22 
1.1220e+07 2.5911e-18 3.0177e-18 1.6933e-18 1.5840e-18 9.5705e-19 2.4338e-19 1.3440e-19 3.3700e-22 9.0821e-22 
1.2589e+07 2.5178e-18 2.9431e-18 1.6541e-18 1.5504e-18 9.5203e-19 2.5734e-19 1.4003e-19 3.5720e-22 8.4475e-22 
1.4125e+07 2.4416e-18 2.8673e-18 1.6140e-18 1.5159e-18 9.3825e-19 2.7026e-19 1.4496e-19 3.7841e-22 7.9575e-22 
1.5849e+07 2.3639e-18 2.7906e-18 1.5733e-18 1.4806e-18 9.2496e-19 2.8203e-19 1.4916e-19 4.0069e-22 7.5880e-22 
1.7783e+07 2.2845e-18 2.7135e-18 1.5322e-18 1.4448e-18 9.1207e-19 2.9253e-19 1.5266e-19 4.2407e-22 7.3199e-22 
1.9953e+07 2.2045e-18 2.6363e-18 1.4909e-18 1.4086e-18 8.9950e-19 3.0170e-19 1.5545e-19 4.4859e-22 7.1379e-22 
2.2387e+07 2.1244e-18 2.5593e-18 1.4497e-18 1.3722e-18 8.8718e-19 3.0950e-19 1.5756e-19 4.7429e-22 7.0302e-22 
2.5119e+07 2.0447e-18 2.4829e-18 1.4086e-18 1.3358e-18 8.7478e-19 3.1591e-19 1.5901e-19 5.0123e-22 6.9872e-22 
2.8184e+07 1.9659e-18 2.4071e-18 1.3679e-18 1.2995e-18 8.5668e-19 3.2093e-19 1.5986e-19 5.2946e-22 7.0012e-22 
3.1623e+07 1.8883e-18 2.3323e-18 1.3276e-18 1.2634e-18 8.3860e-19 3.2461e-19 1.6012e-19 5.5903e-22 7.0660e-22 
3.5481e+07 1.8122e-18 2.2585e-18 1.2878e-18 1.2277e-18 8.2047e-19 3.2698e-19 1.5986e-19 5.8998e-22 7.1762e-22 
3.9811e+07 1.7378e-18 2.1860e-18 1.2487e-18 1.1923e-18 8.0226e-19 3.2812e-19 1.5912e-19 6.2242e-22 7.3284e-22 
4.4668e+07 1.6652e-18 2.1148e-18 1.2103e-18 1.1574e-18 7.8393e-19 3.2810e-19 1.5794e-19 6.5644e-22 7.5196e-22 
5.0119e+07 1.5947e-18 2.0451e-18 1.1727e-18 1.1231e-18 7.6531e-19 3.2701e-19 1.5639e-19 6.9213e-22 7.7476e-22 
5.6234e+07 1.5264e-18 1.9769e-18 1.1358e-18 1.0894e-18 7.3794e-19 3.2495e-19 1.5450e-19 7.2964e-22 8.0109e-22 
6.3096e+07 1.4602e-18 1.9103e-18 1.0998e-18 1.0563e-18 7.1047e-19 3.2202e-19 1.5232e-19 7.6902e-22 8.3079e-22 
7.0795e+07 1.3963e-18 1.8453e-18 1.0647e-18 1.0239e-18 6.8293e-19 3.1831e-19 1.4990e-19 8.1039e-22 8.6376e-22 
7.9433e+07 1.3347e-18 1.7820e-18 1.0305e-18 9.9224e-19 6.5537e-19 3.1391e-19 1.4728e-19 8.5385e-22 8.9993e-22 
8.9125e+07 1.2754e-18 1.7204e-18 9.9715e-19 9.6130e-19 6.2785e-19 3.0892e-19 1.4449e-19 8.9946e-22 9.3923e-22 
1.0000e+08 1.2183e-18 1.6605e-18 9.6472e-19 9.3110e-19 6.0045e-19 3.0344e-19 1.4158e-19 9.4747e-22 9.8176e-22 
1.1220e+08 1.1634e-18 1.6023e-18 9.3320e-19 9.0167e-19 5.7326e-19 2.9753e-19 1.3858e-19 9.9805e-22 1.0276e-21 
1.2589e+08 1.1107e-18 1.5457e-18 9.0259e-19 8.7301e-19 5.4636e-19 2.9128e-19 1.3550e-19 1.0514e-21 1.0769e-21 
1.4125e+08 1.0602e-18 1.4909e-18 8.7288e-19 8.4512e-19 5.1985e-19 2.8476e-19 1.3239e-19 1.1077e-21 1.1296e-21 
1.5849e+08 1.0117e-18 1.4377e-18 8.4405e-19 8.1801e-19 4.9381e-19 2.7803e-19 1.2926e-19 1.1673e-21 1.1862e-21 
1.7783e+08 9.6535e-19 1.3862e-18 8.1611e-19 7.9167e-19 4.6835e-19 2.7115e-19 1.2612e-19 1.2305e-21 1.2467e-21 
1.9953e+08 9.2094e-19 1.3363e-18 7.8903e-19 7.6609e-19 4.4353e-19 2.6416e-19 1.2301e-19 1.2975e-21 1.3114e-21 
2.2387e+08 8.7845e-19 1.2880e-18 7.6279e-19 7.4127e-19 4.1943e-19 2.5712e-19 1.1992e-19 1.3687e-21 1.3806e-21 
2.5119e+08 8.3781e-19 1.2413e-18 7.3739e-19 7.1719e-19 3.9612e-19 2.5007e-19 1.1687e-19 1.4446e-21 1.4548e-21 
2.8184e+08 7.9895e-19 1.1961e-18 7.1280e-19 6.9386e-19 3.7363e-19 2.4303e-19 1.1388e-19 1.5256e-21 1.5344e-21 
3.1623e+08 7.6183e-19 1.1525e-18 6.8901e-19 6.7125e-19 3.5203e-19 2.3603e-19 1.1095e-19 1.6122e-21 1.6197e-21 
