3.1623e+03 1.0327e-23 1.7900e-24 3.6271e-21 5.3305e-21 1.1012e-23 1.6902e-23 2.4219e-23 4.1875e-24 5.4415e-24 1.0327e-23 
3.5481e+03 1.2925e-23 5.4483e-24 3.4941e-21 5.3441e-21 1.1517e-23 1.7650e-23 2.5305e-23 4.4450e-24 5.7756e-24 1.2925e-23 
3.9811e+03 1.8816e-23 1.6019e-23 3.3898e-21 5.3590e-21 1.2044e-23 1.8428e-23 2.6430e-23 4.7187e-24 6.1305e-24 1.8816e-23 
4.4668e+03 3.0766e-23 4.2802e-23 3.3335e-21 5.3760e-21 1.2595e-23 1.9235e-23 2.7596e-23 5.0096e-24 6.5076e-24 3.0766e-23 
5.0119e+03 5.2951e-23 1.0309e-22 3.3511e-21 5.3958e-21 1.3169e-23 2.0075e-23 2.8803e-23 5.3188e-24 6.9084e-24 5.2951e-23 
5.6234e+03 9.2311e-23 2.2539e-22 3.4854e-21 5.4187e-21 1.3769e-23 2.0946e-23 3.0053e-23 5.6476e-24 7.3344e-24 9.2311e-23 
6.3096e+03 1.5645e-22 4.5112e-22 3.7676e-21 5.4130e-21 1.4403e-23 2.1852e-23 3.1347e-23 5.9970e-24 7.7871e-24 1.5645e-22 
7.0795e+03 2.5514e-22 8.3430e-22 4.2368e-21 5.3830e-21 1.5120e-23 2.2805e-23 3.2686e-23 6.3686e-24 8.2684e-24 2.5514e-22 
7.9433e+03 3.9951e-22 1.4380e-21 4.9271e-21 5.3570e-21 1.6156e-23 2.3881e-23 3.4071e-23 6.7637e-24 8.7800e-24 3.9954e-22 
8.9125e+03 5.9598e-22 2.3281e-21 5.8674e-21 5.3359e-21 1.8438e-23 2.5506e-23 3.5504e-23 7.1839e-24 9.3239e-24 5.9651e-22 
1.0000e+04 8.5915e-22 3.5647e-21 7.0808e-21 5.3224e-21 2.4940e-23 2.9581e-23 3.6986e-23 7.6308e-24 9.9023e-24 8.6567e-22 
1.1220e+04 1.2013e-21 5.1966e-21 8.5490e-21 5.3235e-21 4.3514e-23 4.3005e-23 3.8518e-23 8.1061e-24 1.0517e-23 1.2626e-21 
1.2589e+04 1.6224e-21 7.2492e-21 1.0296e-20 5.3543e-21 9.1624e-23 8.6569e-23 4.0102e-23 8.6118e-24 1.1172e-23 2.0560e-21 
1.4125e+04 2.1212e-21 9.7281e-21 1.2285e-20 5.4094e-21 2.0830e-22 2.1309e-22 4.1740e-23 9.1497e-24 1.1867e-23 4.2052e-21 
1.5849e+04 2.7301e-21 1.2629e-20 1.4531e-20 5.4172e-21 4.5770e-22 5.3740e-22 4.3432e-23 9.7221e-24 1.2607e-23 8.5905e-21 
1.7783e+04 3.4770e-21 1.5957e-20 1.7024e-20 5.6145e-21 9.4018e-22 1.2759e-21 4.5181e-23 1.0331e-23 1.3395e-23 1.3779e-20 
1.9953e+04 4.4093e-21 1.9763e-20 1.9792e-20 6.1156e-21 1.7965e-21 2.7857e-21 4.6989e-23 1.0979e-23 1.4232e-23 1.8654e-20 
2.2387e+04 5.3771e-21 2.4206e-20 2.2892e-20 7.0851e-21 3.2116e-21 5.5871e-21 4.8857e-23 1.1669e-23 1.5124e-23 2.3570e-20 
2.5119e+04 6.6709e-21 2.9589e-20 2.6548e-20 8.7694e-21 5.4267e-21 1.0352e-20 5.0787e-23 1.2403e-23 1.6072e-23 2.9161e-20 
2.8184e+04 8.4887e-21 3.6414e-20 3.0912e-20 1.1506e-20 8.9006e-21 1.7852e-20 5.2781e-23 1.3185e-23 1.7082e-23 3.6070e-20 
3.1623e+04 1.1112e-20 4.5388e-20 3.6345e-20 1.5759e-20 1.4056e-20 2.8861e-20 5.4842e-23 1.4017e-23 1.8156e-23 4.5013e-20 
3.5481e+04 1.4920e-20 5.7406e-20 4.3266e-20 2.2116e-20 2.1505e-20 4.4039e-20 5.6971e-23 1.4904e-23 1.9300e-23 5.6651e-20 
3.9811e+04 2.0398e-20 7.3496e-20 5.2323e-20 3.1267e-20 3.1990e-20 6.3827e-20 5.9170e-23 1.5847e-23 2.0518e-23 7.1209e-20 
4.4668e+04 2.8124e-20 9.4734e-20 6.4044e-20 4.3957e-20 4.6353e-20 8.8359e-20 6.1443e-23 1.6852e-23 2.1814e-23 8.7966e-20 
5.0119e+04 3.8722e-20 1.2216e-19 7.8981e-20 6.0944e-20 6.5449e-20 1.1743e-19 6.3792e-23 1.7923e-23 2.3195e-23 1.0554e-19 
5.6234e+04 5.1393e-20 1.5659e-19 9.7591e-20 8.2899e-20 9.0353e-20 1.5051e-19 6.6219e-23 1.9063e-23 2.4665e-23 1.2335e-19 
6.3096e+04 6.7912e-20 1.9892e-19 1.2023e-19 1.1021e-19 1.2135e-19 1.8681e-19 6.8727e-23 2.0277e-23 2.6231e-23 1.4264e-19 
7.0795e+04 8.8894e-20 2.4978e-19 1.4736e-19 1.4295e-19 1.5859e-19 2.2526e-19 7.1320e-23 2.1572e-23 2.7899e-23 1.6538e-19 
7.9433e+04 1.1490e-19 3.0950e-19 1.7906e-19 1.8095e-19 2.0186e-19 2.6484e-19 7.3999e-23 2.2951e-23 2.9676e-23 1.9297e-19 
8.9125e+04 1.4639e-19 3.7832e-19 2.1551e-19 2.2395e-19 2.5055e-19 3.0451e-19 7.6769e-23 2.4420e-23 3.1569e-23 2.2673e-19 
1.0000e+05 1.8377e-19 4.5643e-19 2.5691e-19 2.7164e-19 3.0372e-19 3.4331e-19 7.9633e-23 2.5986e-23 3.3586e-23 2.6794e-19 
1.1220e+05 2.2735e-19 5.4327e-19 3.0410e-19 3.2318e-19 3.6025e-19 3.8045e-19 8.2593e-23 2.7655e-23 3.5735e-23 3.1728e-19 
1.2589e+05 2.7724e-19 6.3898e-19 3.5696e-19 3.7771e-19 4.1892e-19 4.1514e-19 8.5655e-23 2.9435e-23 3.8026e-23 3.7321e-19 
1.4125e+05 3.3350e-19 7.4312e-19 4.1586e-19 4.3460e-19 4.7906e-19 4.4547e-19 8.8822e-23 3.1331e-23 4.0467e-23 4.3395e-19 
1.5849e+05 3.9607e-19 8.5506e-19 4.8120e-19 4.9333e-19 5.3887e-19 4.7281e-19 9.2097e-23 3.3353e-23 4.3069e-23 4.9817e-19 
1.7783e+05 4.6480e-19 9.7405e-19 5.5199e-19 5.5386e-19 5.9738e-19 4.9733e-19 9.5486e-23 3.5509e-23 4.5843e-23 5.6452e-19 
1.9953e+05 5.3946e-19 1.0992e-18 6.2943e-19 6.1592e-19 6.5388e-19 5.1935e-19 9.8993e-23 3.7808e-23 4.8801e-23 6.2894e-19 
2.2387e+05 6.1976e-19 1.2295e-18 7.1361e-19 6.7897e-19 7.0785e-19 5.3935e-19 1.0262e-22 4.0259e-23 5.1954e-23 6.7888e-19 
2.5119e+05 7.0533e-19 1.3639e-18 8.0448e-19 7.4345e-19 7.5898e-19 5.5733e-19 1.0638e-22 4.2873e-23 5.5315e-23 6.7965e-19 
2.8184e+05 7.9577e-19 1.5014e-18 8.9956e-19 8.0971e-19 8.0642e-19 5.7370e-19 1.1027e-22 4.5661e-23 5.8900e-23 5.6976e-19 
3.1623e+05 8.9062e-19 1.6408e-18 1.0002e-18 8.7620e-19 8.5099e-19 5.8944e-19 1.1430e-22 4.8634e-23 6.2722e-23 3.6647e-19 
3.5481e+05 9.8938e-19 1.7812e-18 1.1058e-18 9.4366e-19 8.9297e-19 6.0494e-19 1.1848e-22 5.1804e-23 6.6799e-23 1.9575e-19 
3.9811e+05 1.0915e-18 1.9213e-18 1.2156e-18 1.0129e-18 9.3269e-19 6.2044e-19 1.2283e-22 5.5188e-23 7.1146e-23 1.0108e-19 
4.4668e+05 1.1964e-18 2.0604e-18 1.3260e-18 1.0827e-18 9.7053e-19 6.3619e-19 1.2750e-22 5.8808e-23 7.5782e-23 5.4640e-20 
5.0119e+05 1.3034e-18 2.1973e-18 1.4386e-18 1.1528e-18 1.0068e-18 6.5210e-19 1.3299e-22 6.2736e-23 8.0727e-23 3.1488e-20 
5.6234e+05 1.4122e-18 2.3312e-18 1.5524e-18 1.2229e-18 1.0393e-18 6.6589e-19 1.4098e-22 6.7227e-23 8.6000e-23 1.9225e-20 
6.3096e+05 1.5217e-18 2.4612e-18 1.6665e-18 1.2909e-18 1.0709e-18 6.7982e-19 1.5616e-22 7.3127e-23 9.1624e-23 1.2407e-20 
7.0795e+05 1.6311e-18 2.5865e-18 1.7763e-18 1.3597e-18 1.1021e-18 6.9378e-19 1.8962e-22 8.2888e-23 9.7622e-23 8.4514e-21 
7.9433e+05 1.7398e-18 2.7063e-18 1.8843e-18 1.4285e-18 1.1329e-18 7.0793e-19 2.6417e-22 1.0258e-22 1.0402e-22 6.1196e-21 
8.9125e+05 1.8467e-18 2.8198e-18 1.9898e-18 1.4968e-18 1.1637e-18 7.2187e-19 4.2076e-22 1.4530e-22 1.1084e-22 4.7956e-21 
1.0000e+06 1.9511e-18 2.9263e-18 2.0920e-18 1.5638e-18 1.1945e-18 7.3535e-19 7.2457e-22 2.3566e-22 1.1811e-22 4.1808e-21 
1.1220e+06 2.0464e-18 3.0253e-18 2.1853e-18 1.6288e-18 1.2252e-18 7.4827e-19 1.2685e-21 4.1471e-22 1.2587e-22 4.1412e-21 
1.2589e+06 2.1372e-18 3.1159e-18 2.2736e-18 1.6909e-18 1.2555e-18 7.6024e-19 2.1719e-21 7.4383e-22 1.3413e-22 4.6168e-21 
1.4125e+06 2.2225e-18 3.1978e-18 2.3565e-18 1.7497e-18 1.2773e-18 7.7119e-19 3.5742e-21 1.3057e-21 1.4294e-22 5.5562e-21 
1.5849e+06 2.3016e-18 3.2705e-18 2.4334e-18 1.8045e-18 1.2986e-18 7.8140e-19 5.6241e-21 2.2018e-21 1.5232e-22 6.8642e-21 
1.7783e+06 2.3735e-18 3.3336e-18 2.4980e-18 1.8545e-18 1.3193e-18 7.9115e-19 8.4662e-21 3.5449e-21 1.6232e-22 8.3776e-21 
1.9953e+06 2.4377e-18 3.3868e-18 2.5557e-18 1.8991e-18 1.3392e-18 7.9952e-19 1.2228e-20 5.4494e-21 1.7297e-22 9.8439e-21 
2.2387e+06 2.4934e-18 3.4300e-18 2.6065e-18 1.9383e-18 1.3583e-18 8.0631e-19 1.7012e-20 8.0202e-21 1.8430e-22 1.0905e-20 
2.5119e+06 2.5401e-18 3.4631e-18 2.6501e-18 1.9716e-18 1.3762e-18 8.1165e-19 2.2885e-20 1.1343e-20 1.9635e-22 1.1197e-20 
2.8184e+06 2.5775e-18 3.4863e-18 2.6793e-18 1.9990e-18 1.3810e-18 8.1522e-19 2.9881e-20 1.5473e-20 2.0918e-22 1.0620e-20 
3.1623e+06 2.6053e-18 3.4997e-18 2.7015e-18 2.0205e-18 1.3847e-18 8.1685e-19 3.8000e-20 2.0438e-20 2.2281e-22 9.4420e-21 
3.5481e+06 2.6235e-18 3.5037e-18 2.7166e-18 2.0358e-18 1.3873e-18 8.1654e-19 4.7211e-20 2.6227e-20 2.3729e-22 8.0570e-21 
3.9811e+06 2.6321e-18 3.4985e-18 2.7251e-18 2.0450e-18 1.3887e-18 8.1370e-19 5.7455e-20 3.2800e-20 2.5267e-22 6.7421e-21 
4.4668e+06 2.6314e-18 3.4848e-18 2.7202e-18 2.0484e-18 1.3893e-18 8.0898e-19 6.8656e-20 4.0089e-20 2.6898e-22 5.6139e-21 
5.0119e+06 2.6216e-18 3.4630e-18 2.7094e-18 2.0461e-18 1.3888e-18 8.0269e-19 8.0713e-20 4.8003e-20 2.8628e-22 4.6907e-21 
5.6234e+06 2.6033e-18 3.4338e-18 2.6930e-18 2.0386e-18 1.3736e-18 7.9462e-19 9.3516e-20 5.6434e-20 3.0460e-22 3.9503e-21 
6.3096e+06 2.5771e-18 3.3978e-18 2.6718e-18 2.0261e-18 1.3577e-18 7.8486e-19 1.0694e-19 6.5261e-20 3.2400e-22 3.3601e-21 
7.0795e+06 2.5437e-18 3.3557e-18 2.6399e-18 2.0091e-18 1.3412e-18 7.7353e-19 1.2084e-19 7.4360e-20 3.4451e-22 2.8894e-21 
7.9433e+06 2.5038e-18 3.3082e-18 2.6041e-18 1.9880e-18 1.3245e-18 7.6074e-19 1.3508e-19 8.2969e-20 3.6619e-22 2.4972e-21 
8.9125e+06 2.4581e-18 3.2559e-18 2.5650e-18 1.9632e-18 1.3077e-18 7.4664e-19 1.4950e-19 9.0478e-20 3.8908e-22 2.1650e-21 
1.0000e+07 2.4076e-18 3.1995e-18 2.5232e-18 1.9351e-18 1.2910e-18 7.3136e-19 1.6394e-19 9.8512e-20 4.1324e-22 1.9145e-21 
1.1220e+07 2.3531e-18 3.1396e-18 2.4738e-18 1.9041e-18 1.2745e-18 7.1506e-19 1.7824e-19 1.0532e-19 4.3869e-22 1.7034e-21 
1.2589e+07 2.2953e-18 3.0768e-18 2.4227e-18 1.8706e-18 1.2578e-18 6.9788e-19 1.9224e-19 1.1161e-19 4.6550e-22 1.5355e-21 
1.4125e+07 2.2353e-18 3.0117e-18 2.3703e-18 1.8351e-18 1.2299e-18 6.7997e-19 2.0577e-19 1.1733e-19 4.9372e-22 1.4025e-21 
1.5849e+07 2.1731e-18 2.9447e-18 2.3172e-18 1.7977e-18 1.2026e-18 6.6148e-19 2.1868e-19 1.2246e-19 5.2339e-22 1.2980e-21 
1.7783e+07 2.1097e-18 2.8764e-18 2.2591e-18 1.7589e-18 1.1762e-18 6.4254e-19 2.3082e-19 1.2696e-19 5.5457e-22 1.2168e-21 
1.9953e+07 2.0456e-18 2.8071e-18 2.2011e-18 1.7190e-18 1.1508e-18 6.2328e-19 2.4207e-19 1.3083e-19 5.8730e-22 1.1548e-21 
2.2387e+07 1.9814e-18 2.7373e-18 2.1433e-18 1.6782e-18 1.1265e-18 6.0383e-19 2.5230e-19 1.3406e-19 6.2167e-22 1.1092e-21 
2.5119e+07 1.9173e-18 2.6673e-18 2.0861e-18 1.6368e-18 1.1029e-18 5.8407e-19 2.6144e-19 1.3667e-19 6.5773e-22 1.0772e-21 
2.8184e+07 1.8539e-18 2.5974e-18 2.0261e-18 1.5949e-18 1.0724e-18 5.6408e-19 2.6939e-19 1.3867e-19 6.9550e-22 1.0570e-21 
3.1623e+07 1.7913e-18 2.5278e-18 1.9671e-18 1.5529e-18 1.0432e-18 5.4431e-19 2.7612e-19 1.4008e-19 7.3509e-22 1.0471e-21 
3.5481e+07 1.7297e-18 2.4588e-18 1.9093e-18 1.5108e-18 1.0153e-18 5.2484e-19 2.8159e-19 1.4095e-19 7.7660e-22 1.0460e-21 
3.9811e+07 1.6694e-18 2.3905e-18 1.8528e-18 1.4688e-18 9.8878e-19 5.0564e-19 2.8581e-19 1.4129e-19 8.2012e-22 1.0530e-21 
4.4668e+07 1.6105e-18 2.3232e-18 1.7949e-18 1.4271e-18 9.6363e-19 4.8676e-19 2.8878e-19 1.4117e-19 8.6576e-22 1.0671e-21 
5.0119e+07 1.5530e-18 2.2569e-18 1.7385e-18 1.3858e-18 9.3962e-19 4.6825e-19 2.9054e-19 1.4060e-19 9.1362e-22 1.0877e-21 
5.6234e+07 1.4971e-18 2.1918e-18 1.6838e-18 1.3449e-18 9.0365e-19 4.5015e-19 2.9116e-19 1.3965e-19 9.6382e-22 1.1144e-21 
6.3096e+07 1.4428e-18 2.1279e-18 1.6307e-18 1.3046e-18 8.6907e-19 4.3248e-19 2.9069e-19 1.3835e-19 1.0165e-21 1.1467e-21 
7.0795e+07 1.3902e-18 2.0654e-18 1.5771e-18 1.2649e-18 8.3583e-19 4.1528e-19 2.8921e-19 1.3675e-19 1.0717e-21 1.1843e-21 
7.9433e+07 1.3391e-18 2.0043e-18 1.5252e-18 1.2259e-18 8.0391e-19 3.9856e-19 2.8680e-19 1.3489e-19 1.1296e-21 1.2269e-21 
8.9125e+07 1.2897e-18 1.9446e-18 1.4751e-18 1.1877e-18 7.7327e-19 3.8234e-19 2.8357e-19 1.3280e-19 1.1905e-21 1.2746e-21 
1.0000e+08 1.2419e-18 1.8863e-18 1.4268e-18 1.1502e-18 7.4387e-19 3.6662e-19 2.7959e-19 1.3054e-19 1.2545e-21 1.3271e-21 
1.1220e+08 1.1956e-18 1.8296e-18 1.3783e-18 1.1136e-18 7.1567e-19 3.5140e-19 2.7497e-19 1.2812e-19 1.3216e-21 1.3843e-21 
1.2589e+08 1.1510e-18 1.7743e-18 1.3316e-18 1.0778e-18 6.8864e-19 3.3670e-19 2.6979e-19 1.2558e-19 1.3924e-21 1.4464e-21 
1.4125e+08 1.1079e-18 1.7205e-18 1.2867e-18 1.0429e-18 6.6273e-19 3.2251e-19 2.6413e-19 1.2296e-19 1.4670e-21 1.5136e-21 
1.5849e+08 1.0662e-18 1.6682e-18 1.2435e-18 1.0088e-18 6.3790e-19 3.0882e-19 2.5810e-19 1.2028e-19 1.5459e-21 1.5860e-21 
1.7783e+08 1.0261e-18 1.6174e-18 1.2004e-18 9.7567e-19 6.1412e-19 2.9562e-19 2.5175e-19 1.1756e-19 1.6293e-21 1.6638e-21 
1.9953e+08 9.8736e-19 1.5680e-18 1.1590e-18 9.4339e-19 5.9133e-19 2.8292e-19 2.4515e-19 1.1481e-19 1.7177e-21 1.7474e-21 
2.2387e+08 9.5002e-19 1.5201e-18 1.1193e-18 9.1200e-19 5.6952e-19 2.7070e-19 2.3839e-19 1.1207e-19 1.8117e-21 1.8371e-21 
2.5119e+08 9.1404e-19 1.4736e-18 1.0811e-18 8.8149e-19 5.4862e-19 2.5895e-19 2.3150e-19 1.0934e-19 1.9116e-21 1.9334e-21 
2.8184e+08 8.7936e-19 1.4285e-18 1.0432e-18 8.5185e-19 5.2862e-19 2.4766e-19 2.2455e-19 1.0664e-19 2.0177e-21 2.0364e-21 
3.1623e+08 8.4596e-19 1.3847e-18 1.0068e-18 8.2309e-19 5.0946e-19 2.3682e-19 2.1757e-19 1.0398e-19 2.1311e-21 2.1472e-21 
