3.1623e+03 1.2013e-29 1.2703e-21 2.4033e-21 5.2173e-24 7.6999e-20 3.8905e-20 2.5674e-23 3.4983e-23 4.5798e-23 6.8644e-24 8.4411e-24 4.2635e-32 
3.5481e+03 1.1679e-29 1.2473e-21 2.3420e-21 5.4710e-24 7.3978e-20 3.8573e-20 2.6841e-23 3.6563e-23 4.7930e-23 7.2844e-24 8.9573e-24 5.1352e-32 
3.9811e+03 1.1257e-29 1.2196e-21 2.2753e-21 5.8350e-24 7.0424e-20 3.7898e-20 2.8058e-23 3.8205e-23 5.0145e-23 7.7306e-24 9.5055e-24 6.1853e-32 
4.4668e+03 1.0770e-29 1.1900e-21 2.2083e-21 6.6411e-24 6.6498e-20 3.6916e-20 2.9328e-23 3.9913e-23 5.2443e-23 8.2047e-24 1.0088e-23 7.4501e-32 
5.0119e+03 1.0230e-29 1.1577e-21 2.1458e-21 8.9971e-24 6.2279e-20 3.5665e-20 3.0653e-23 4.1687e-23 5.4828e-23 8.7084e-24 1.0707e-23 8.9736e-32 
5.6234e+03 9.6509e-30 1.1233e-21 2.1017e-21 1.5987e-23 5.7851e-20 3.4182e-20 3.2034e-23 4.3531e-23 5.7302e-23 9.2437e-24 1.1364e-23 1.0814e-31 
6.3096e+03 9.0671e-30 1.0874e-21 2.0909e-21 3.4896e-23 5.3469e-20 3.2502e-20 3.3474e-23 4.5447e-23 5.9867e-23 9.8126e-24 1.2062e-23 1.3274e-31 
7.0795e+03 8.5533e-30 1.0506e-21 2.1311e-21 8.0525e-23 4.9192e-20 3.0660e-20 3.4976e-23 4.7438e-23 6.2525e-23 1.0417e-23 1.2804e-23 2.4179e-31 
7.9433e+03 9.2901e-30 1.0133e-21 2.2417e-21 1.7906e-22 4.4964e-20 2.8687e-20 3.6541e-23 4.9506e-23 6.5280e-23 1.1060e-23 1.3593e-23 2.4200e-30 
8.9125e+03 2.7550e-29 9.7602e-22 2.4409e-21 3.7124e-22 4.1961e-20 2.6612e-20 3.8178e-23 5.1656e-23 6.8133e-23 1.1743e-23 1.4431e-23 4.9019e-29 
1.0000e+04 2.2727e-28 9.3904e-22 2.7746e-21 7.1310e-22 3.9200e-20 2.4462e-20 3.9915e-23 5.3914e-23 7.1088e-23 1.2469e-23 1.5322e-23 8.8350e-28 
1.1220e+04 1.8902e-27 9.0162e-22 3.2240e-21 1.2731e-21 3.6681e-20 2.2561e-20 4.1889e-23 5.6422e-23 7.4147e-23 1.3241e-23 1.6269e-23 1.2840e-26 
1.2589e+04 1.2932e-26 8.6502e-22 3.7883e-21 2.1250e-21 3.4445e-20 2.1117e-20 4.4606e-23 5.9887e-23 7.7314e-23 1.4063e-23 1.7276e-23 1.4743e-25 
1.4125e+04 7.3290e-26 8.2942e-22 4.4627e-21 3.3614e-21 3.2543e-20 1.9669e-20 4.9666e-23 6.7139e-23 8.0590e-23 1.4936e-23 1.8347e-23 1.3393e-24 
1.5849e+04 3.5176e-25 7.9499e-22 5.2356e-21 5.0409e-21 3.1025e-20 1.8236e-20 6.1305e-23 8.7548e-23 8.3980e-23 1.5864e-23 1.9485e-23 9.6807e-24 
1.7783e+04 1.4591e-24 7.6186e-22 6.0900e-21 7.2021e-21 2.9827e-20 1.6843e-20 8.9126e-23 1.4703e-22 8.7487e-23 1.6852e-23 2.0695e-23 5.4416e-23 
1.9953e+04 5.6797e-24 7.3025e-22 7.0013e-21 9.8535e-21 2.9090e-20 1.5523e-20 1.5210e-22 3.0651e-22 9.1114e-23 1.7903e-23 2.1983e-23 2.0944e-22 
2.2387e+04 1.8192e-23 7.0078e-22 7.9535e-21 1.2972e-20 2.8929e-20 1.4327e-20 2.8373e-22 6.8934e-22 9.4863e-23 1.9020e-23 2.3352e-23 4.5064e-22 
2.5119e+04 5.2616e-23 6.7560e-22 8.9285e-21 1.6510e-20 2.9503e-20 1.3335e-20 5.3853e-22 1.5131e-21 9.8741e-23 2.0209e-23 2.4809e-23 5.9321e-22 
2.8184e+04 1.3852e-22 6.6135e-22 9.9151e-21 2.0413e-20 3.0866e-20 1.3135e-20 1.0016e-21 3.1155e-21 1.0275e-22 2.1475e-23 2.6358e-23 6.3908e-22 
3.1623e+04 3.3424e-22 6.7576e-22 1.0919e-20 2.4720e-20 3.2791e-20 1.3355e-20 1.8043e-21 5.9595e-21 1.0689e-22 2.2821e-23 2.8007e-23 6.7851e-22 
3.5481e+04 7.4396e-22 7.5972e-22 1.1975e-20 2.9481e-20 3.5181e-20 1.4209e-20 3.1501e-21 1.0608e-20 1.1117e-22 2.4254e-23 2.9761e-23 8.1090e-22 
3.9811e+04 1.5370e-21 9.9624e-22 1.3167e-20 3.4758e-20 3.8021e-20 1.5993e-20 5.3482e-21 1.7666e-20 1.1560e-22 2.5780e-23 3.1628e-23 1.2366e-21 
4.4668e+04 2.9648e-21 1.5326e-21 1.4642e-20 4.0762e-20 4.1934e-20 1.9077e-20 8.8489e-21 2.7693e-20 1.2017e-22 2.7404e-23 3.3615e-23 2.3720e-21 
5.0119e+04 5.3711e-21 2.6150e-21 1.6591e-20 4.7811e-20 4.7348e-20 2.4099e-20 1.4263e-20 4.1115e-20 1.2490e-22 2.9132e-23 3.5730e-23 4.8415e-21 
5.6234e+04 9.1898e-21 4.6049e-21 1.9337e-20 5.6312e-20 5.4705e-20 3.1498e-20 2.2347e-20 5.8146e-20 1.2978e-22 3.0973e-23 3.7981e-23 9.1777e-21 
6.3096e+04 1.4928e-20 7.9938e-21 2.3277e-20 6.6667e-20 6.4533e-20 4.1915e-20 3.3953e-20 7.8740e-20 1.3482e-22 3.2933e-23 4.0378e-23 1.5542e-20 
7.0795e+04 2.3138e-20 1.3401e-20 2.8883e-20 7.9170e-20 7.7342e-20 5.5989e-20 4.9923e-20 1.0258e-19 1.4003e-22 3.5020e-23 4.2930e-23 2.4051e-20 
7.9433e+04 3.4378e-20 2.1556e-20 3.6701e-20 9.4087e-20 9.3663e-20 7.4172e-20 7.0980e-20 1.2912e-19 1.4542e-22 3.7243e-23 4.5647e-23 3.5528e-20 
8.9125e+04 4.9167e-20 3.3259e-20 4.7348e-20 1.1155e-19 1.1384e-19 9.6826e-20 9.7295e-20 1.5762e-19 1.5098e-22 3.9611e-23 4.8541e-23 5.1887e-20 
1.0000e+05 6.7953e-20 4.9344e-20 6.1047e-20 1.3150e-19 1.3769e-19 1.2399e-19 1.2853e-19 1.8723e-19 1.5673e-22 4.2134e-23 5.1624e-23 7.5185e-20 
1.1220e+05 9.1076e-20 7.0613e-20 7.8817e-20 1.5365e-19 1.6497e-19 1.5562e-19 1.6454e-19 2.1705e-19 1.6267e-22 4.4821e-23 5.4907e-23 1.0659e-19 
1.2589e+05 1.1875e-19 9.7826e-20 1.0152e-19 1.7801e-19 1.9560e-19 1.9127e-19 2.0485e-19 2.4629e-19 1.6881e-22 4.7685e-23 5.8405e-23 1.4417e-19 
1.4125e+05 1.5107e-19 1.3163e-19 1.3003e-19 2.0484e-19 2.2924e-19 2.3018e-19 2.4825e-19 2.7421e-19 1.7515e-22 5.0736e-23 6.2131e-23 1.8496e-19 
1.5849e+05 1.8799e-19 1.7255e-19 1.6528e-19 2.3429e-19 2.6567e-19 2.7105e-19 2.9359e-19 3.0022e-19 1.8170e-22 5.3988e-23 6.6102e-23 2.2767e-19 
1.7783e+05 2.2936e-19 2.2098e-19 2.0815e-19 2.6699e-19 3.0355e-19 3.1317e-19 3.4005e-19 3.2366e-19 1.8847e-22 5.7454e-23 7.0333e-23 2.7291e-19 
1.9953e+05 2.7493e-19 2.7715e-19 2.5829e-19 3.0382e-19 3.4165e-19 3.5621e-19 3.8641e-19 3.4426e-19 1.9547e-22 6.1148e-23 7.4842e-23 3.2035e-19 
2.2387e+05 3.2438e-19 3.4117e-19 3.1715e-19 3.4569e-19 3.8183e-19 3.9966e-19 4.3142e-19 3.6209e-19 2.0270e-22 6.5086e-23 7.9648e-23 3.6965e-19 
2.5119e+05 3.7736e-19 4.1299e-19 3.8530e-19 3.9401e-19 4.2455e-19 4.4333e-19 4.7428e-19 3.7725e-19 2.1018e-22 6.9284e-23 8.4771e-23 4.2036e-19 
2.8184e+05 4.3345e-19 4.9245e-19 4.6290e-19 4.4955e-19 4.7039e-19 4.8699e-19 5.1453e-19 3.8997e-19 2.1790e-22 7.3760e-23 9.0232e-23 4.7219e-19 
3.1623e+05 4.9227e-19 5.7928e-19 5.4984e-19 5.1314e-19 5.1999e-19 5.2987e-19 5.5121e-19 4.0064e-19 2.2589e-22 7.8532e-23 9.6053e-23 5.2408e-19 
3.5481e+05 5.5340e-19 6.7309e-19 6.4572e-19 5.8570e-19 5.7384e-19 5.7070e-19 5.8400e-19 4.0971e-19 2.3416e-22 8.3621e-23 1.0226e-22 5.7300e-19 
3.9811e+05 6.1647e-19 7.7336e-19 7.4993e-19 6.6735e-19 6.3040e-19 6.1185e-19 6.1380e-19 4.1751e-19 2.4270e-22 8.9047e-23 1.0888e-22 6.1578e-19 
4.4668e+05 6.8109e-19 8.7952e-19 8.6164e-19 7.5588e-19 6.9035e-19 6.5422e-19 6.4114e-19 4.2463e-19 2.5154e-22 9.4834e-23 1.1594e-22 6.4608e-19 
5.0119e+05 7.4694e-19 9.9086e-19 9.7774e-19 8.5142e-19 7.5602e-19 6.9829e-19 6.6667e-19 4.3165e-19 2.6068e-22 1.0101e-22 1.2346e-22 6.4261e-19 
5.6234e+05 8.1369e-19 1.1066e-18 1.0991e-18 9.5448e-19 8.2761e-19 7.4422e-19 6.9079e-19 4.3896e-19 2.7015e-22 1.0759e-22 1.3149e-22 5.6182e-19 
6.3096e+05 8.8104e-19 1.2259e-18 1.2247e-18 1.0637e-18 9.0494e-19 7.9208e-19 7.1360e-19 4.4683e-19 2.7996e-22 1.1461e-22 1.4004e-22 3.9553e-19 
7.0795e+05 9.4871e-19 1.3479e-18 1.3537e-18 1.1774e-18 9.8761e-19 8.4117e-19 7.3546e-19 4.5551e-19 2.9022e-22 1.2211e-22 1.4917e-22 2.3058e-19 
7.9433e+05 1.0164e-18 1.4714e-18 1.4850e-18 1.2948e-18 1.0750e-18 8.9295e-19 7.5685e-19 4.6577e-19 3.0128e-22 1.3017e-22 1.5891e-22 1.2661e-19 
8.9125e+05 1.0839e-18 1.5954e-18 1.6178e-18 1.4140e-18 1.1663e-18 9.4707e-19 7.7860e-19 4.7678e-19 3.1435e-22 1.3906e-22 1.6929e-22 7.1629e-20 
1.0000e+06 1.1510e-18 1.7189e-18 1.7477e-18 1.5337e-18 1.2605e-18 1.0035e-18 8.0077e-19 4.8839e-19 3.3279e-22 1.4958e-22 1.8036e-22 4.3013e-20 
1.1220e+06 1.2173e-18 1.8406e-18 1.8771e-18 1.6525e-18 1.3567e-18 1.0609e-18 8.2270e-19 5.0043e-19 3.6476e-22 1.6397e-22 1.9217e-22 2.7514e-20 
1.2589e+06 1.2825e-18 1.9595e-18 2.0055e-18 1.7691e-18 1.4536e-18 1.1163e-18 8.4494e-19 5.1271e-19 4.2730e-22 1.8765e-22 2.0476e-22 1.8734e-20 
1.4125e+06 1.3465e-18 2.0744e-18 2.1324e-18 1.8824e-18 1.5487e-18 1.1728e-18 8.6786e-19 5.2504e-19 5.5154e-22 2.3200e-22 2.1819e-22 1.3615e-20 
1.5849e+06 1.4088e-18 2.1844e-18 2.2572e-18 1.9916e-18 1.6414e-18 1.2300e-18 8.9043e-19 5.3719e-19 7.8779e-22 3.1801e-22 2.3250e-22 1.0647e-20 
1.7783e+06 1.4691e-18 2.2884e-18 2.3794e-18 2.0959e-18 1.7318e-18 1.2871e-18 9.1060e-19 5.4912e-19 1.2088e-21 4.8020e-22 2.4777e-22 9.0629e-21 
1.9953e+06 1.5271e-18 2.3856e-18 2.4868e-18 2.1947e-18 1.8186e-18 1.3434e-18 9.3043e-19 5.6051e-19 1.9090e-21 7.6919e-22 2.6404e-22 8.4565e-21 
2.2387e+06 1.5824e-18 2.4753e-18 2.5888e-18 2.2875e-18 1.9016e-18 1.3983e-18 9.4961e-19 5.7118e-19 2.9999e-21 1.2521e-21 2.8138e-22 8.6003e-21 
2.5119e+06 1.6345e-18 2.5568e-18 2.6864e-18 2.3743e-18 1.9799e-18 1.4510e-18 9.6776e-19 5.8097e-19 4.6010e-21 2.0098e-21 2.9985e-22 9.3390e-21 
2.8184e+06 1.6831e-18 2.6297e-18 2.7792e-18 2.4554e-18 2.0530e-18 1.5009e-18 9.8457e-19 5.8982e-19 6.8284e-21 3.1309e-21 3.1953e-22 1.0526e-20 
3.1623e+06 1.7276e-18 2.6936e-18 2.8667e-18 2.5296e-18 2.1201e-18 1.5474e-18 9.9977e-19 5.9758e-19 9.7834e-21 4.7043e-21 3.4048e-22 1.1985e-20 
3.5481e+06 1.7678e-18 2.7485e-18 2.9484e-18 2.5967e-18 2.1807e-18 1.5905e-18 1.0131e-18 6.0412e-19 1.3544e-20 6.8098e-21 3.6279e-22 1.3473e-20 
3.9811e+06 1.8031e-18 2.7942e-18 3.0239e-18 2.6568e-18 2.2343e-18 1.6302e-18 1.0285e-18 6.0939e-19 1.8157e-20 9.5110e-21 3.8652e-22 1.4654e-20 
4.4668e+06 1.8332e-18 2.8310e-18 3.0927e-18 2.7097e-18 2.2808e-18 1.6652e-18 1.0420e-18 6.1336e-19 2.3638e-20 1.2850e-20 4.1176e-22 1.5152e-20 
5.0119e+06 1.8578e-18 2.8590e-18 3.1542e-18 2.7553e-18 2.3197e-18 1.6950e-18 1.0531e-18 6.1600e-19 2.9974e-20 1.6842e-20 4.3858e-22 1.4754e-20 
5.6234e+06 1.8765e-18 2.8786e-18 3.2080e-18 2.7936e-18 2.3511e-18 1.7196e-18 1.0615e-18 6.1728e-19 3.7122e-20 2.1479e-20 4.6708e-22 1.3578e-20 
6.3096e+06 1.8892e-18 2.8901e-18 3.2537e-18 2.8246e-18 2.3749e-18 1.7388e-18 1.0673e-18 6.1726e-19 4.5022e-20 2.6729e-20 4.9733e-22 1.1980e-20 
7.0795e+06 1.8957e-18 2.8941e-18 3.2908e-18 2.8482e-18 2.3912e-18 1.7527e-18 1.0705e-18 6.1610e-19 5.3596e-20 3.2537e-20 5.2942e-22 1.0309e-20 
7.9433e+06 1.8960e-18 2.8911e-18 3.3191e-18 2.8646e-18 2.4002e-18 1.7613e-18 1.0711e-18 6.1401e-19 6.2757e-20 3.8833e-20 5.6345e-22 8.7779e-21 
8.9125e+06 1.8901e-18 2.8816e-18 3.3384e-18 2.8736e-18 2.4022e-18 1.7649e-18 1.0692e-18 6.1074e-19 7.2414e-20 4.5534e-20 5.9949e-22 7.4686e-21 
1.0000e+07 1.8782e-18 2.8661e-18 3.3484e-18 2.8754e-18 2.3975e-18 1.7636e-18 1.0649e-18 6.0636e-19 8.2472e-20 5.2549e-20 6.3764e-22 6.3869e-21 
1.1220e+07 1.8605e-18 2.8454e-18 3.3491e-18 2.8700e-18 2.3864e-18 1.7576e-18 1.0584e-18 6.0104e-19 9.2840e-20 5.9781e-20 6.7798e-22 5.5076e-21 
1.2589e+07 1.8374e-18 2.8198e-18 3.3407e-18 2.8575e-18 2.3695e-18 1.7474e-18 1.0498e-18 5.9483e-19 1.0342e-19 6.6468e-20 7.2061e-22 4.7595e-21 
1.4125e+07 1.8092e-18 2.7901e-18 3.3233e-18 2.8381e-18 2.3472e-18 1.7331e-18 1.0394e-18 5.8780e-19 1.1413e-19 7.2421e-20 7.6562e-22 4.1321e-21 
1.5849e+07 1.7763e-18 2.7566e-18 3.2972e-18 2.8118e-18 2.3200e-18 1.7152e-18 1.0271e-18 5.8012e-19 1.2489e-19 7.8835e-20 8.1311e-22 3.6586e-21 
1.7783e+07 1.7393e-18 2.7198e-18 3.2628e-18 2.7791e-18 2.2885e-18 1.6940e-18 1.0134e-18 5.7184e-19 1.3559e-19 8.4256e-20 8.6314e-22 3.2589e-21 
1.9953e+07 1.7044e-18 2.6803e-18 3.2207e-18 2.7400e-18 2.2530e-18 1.6699e-18 9.9830e-19 5.6292e-19 1.4617e-19 8.9288e-20 9.1583e-22 2.9415e-21 
2.2387e+07 1.6612e-18 2.6385e-18 3.1713e-18 2.6951e-18 2.2142e-18 1.6432e-18 9.8201e-19 5.5358e-19 1.5653e-19 9.3892e-20 9.7129e-22 2.6908e-21 
2.5119e+07 1.6155e-18 2.5947e-18 3.1155e-18 2.6446e-18 2.1725e-18 1.6143e-18 9.6469e-19 5.4376e-19 1.6660e-19 9.8038e-20 1.0296e-21 2.4943e-21 
2.8184e+07 1.5679e-18 2.5494e-18 3.0538e-18 2.5891e-18 2.1284e-18 1.5834e-18 9.4652e-19 5.3355e-19 1.7631e-19 1.0171e-19 1.0908e-21 2.3423e-21 
3.1623e+07 1.5187e-18 2.5028e-18 2.9869e-18 2.5290e-18 2.0822e-18 1.5509e-18 9.2764e-19 5.2304e-19 1.8556e-19 1.0490e-19 1.1552e-21 2.2272e-21 
3.5481e+07 1.4686e-18 2.4552e-18 2.9157e-18 2.4649e-18 2.0345e-18 1.5171e-18 9.0818e-19 5.1229e-19 1.9430e-19 1.0760e-19 1.2227e-21 2.1431e-21 
3.9811e+07 1.4178e-18 2.4069e-18 2.8409e-18 2.3973e-18 1.9855e-18 1.4822e-18 8.8828e-19 5.0137e-19 2.0246e-19 1.0982e-19 1.2935e-21 2.0852e-21 
4.4668e+07 1.3668e-18 2.3581e-18 2.7631e-18 2.3268e-18 1.9356e-18 1.4465e-18 8.6806e-19 4.9035e-19 2.0998e-19 1.1157e-19 1.3679e-21 2.0498e-21 
5.0119e+07 1.3158e-18 2.3090e-18 2.6830e-18 2.2540e-18 1.8851e-18 1.4101e-18 8.4761e-19 4.7928e-19 2.1680e-19 1.1287e-19 1.4458e-21 2.0340e-21 
5.6234e+07 1.2652e-18 2.2599e-18 2.6014e-18 2.1794e-18 1.8343e-18 1.3734e-18 8.2704e-19 4.6821e-19 2.2289e-19 1.1376e-19 1.5276e-21 2.0354e-21 
6.3096e+07 1.2152e-18 2.2108e-18 2.5186e-18 2.1035e-18 1.7834e-18 1.3364e-18 8.0644e-19 4.5718e-19 2.2821e-19 1.1424e-19 1.6134e-21 2.0521e-21 
7.0795e+07 1.1660e-18 2.1620e-18 2.4354e-18 2.0270e-18 1.7326e-18 1.2993e-18 7.8586e-19 4.4625e-19 2.3274e-19 1.1436e-19 1.7034e-21 2.0825e-21 
7.9433e+07 1.1178e-18 2.1135e-18 2.3521e-18 1.9502e-18 1.6821e-18 1.2623e-18 7.6539e-19 4.3571e-19 2.3648e-19 1.1414e-19 1.7978e-21 2.1256e-21 
8.9125e+07 1.0707e-18 2.0654e-18 2.2693e-18 1.8737e-18 1.6321e-18 1.2255e-18 7.4509e-19 4.2530e-19 2.3942e-19 1.1362e-19 1.8969e-21 2.1802e-21 
1.0000e+08 1.0248e-18 2.0178e-18 2.1872e-18 1.7978e-18 1.5827e-18 1.1890e-18 7.2499e-19 4.1503e-19 2.4159e-19 1.1283e-19 2.0008e-21 2.2457e-21 
1.1220e+08 9.8032e-19 1.9708e-18 2.1062e-18 1.7229e-18 1.5340e-18 1.1529e-18 7.0515e-19 4.0494e-19 2.4300e-19 1.1180e-19 2.1096e-21 2.3213e-21 
1.2589e+08 9.3718e-19 1.9245e-18 2.0266e-18 1.6493e-18 1.4861e-18 1.1173e-18 6.8561e-19 3.9505e-19 2.4368e-19 1.1058e-19 2.2240e-21 2.4068e-21 
1.4125e+08 8.9548e-19 1.8789e-18 1.9485e-18 1.5773e-18 1.4391e-18 1.0822e-18 6.6639e-19 3.8543e-19 2.4368e-19 1.0918e-19 2.3442e-21 2.5021e-21 
1.5849e+08 8.5524e-19 1.8340e-18 1.8723e-18 1.5071e-18 1.3930e-18 1.0477e-18 6.4752e-19 3.7601e-19 2.4305e-19 1.0763e-19 2.4709e-21 2.6071e-21 
1.7783e+08 8.1647e-19 1.7899e-18 1.7979e-18 1.4388e-18 1.3479e-18 1.0139e-18 6.2903e-19 3.6680e-19 2.4183e-19 1.0597e-19 2.6043e-21 2.7218e-21 
1.9953e+08 7.7917e-19 1.7467e-18 1.7256e-18 1.3725e-18 1.3039e-18 9.8072e-19 6.1093e-19 3.5780e-19 2.4008e-19 1.0422e-19 2.7453e-21 2.8466e-21 
2.2387e+08 7.4333e-19 1.7043e-18 1.6555e-18 1.3085e-18 1.2610e-18 9.4830e-19 5.9323e-19 3.4903e-19 2.3785e-19 1.0240e-19 2.8948e-21 2.9820e-21 
2.5119e+08 7.0894e-19 1.6627e-18 1.5874e-18 1.2468e-18 1.2191e-18 9.1663e-19 5.7595e-19 3.4049e-19 2.3521e-19 1.0053e-19 3.0535e-21 3.1286e-21 
2.8184e+08 6.7596e-19 1.6220e-18 1.5217e-18 1.1873e-18 1.1784e-18 8.8573e-19 5.5910e-19 3.3217e-19 2.3219e-19 9.8626e-20 3.2225e-21 3.2871e-21 
3.1623e+08 6.4438e-19 1.5821e-18 1.4581e-18 1.1302e-18 1.1388e-18 8.5561e-19 5.4268e-19 3.2410e-19 2.2887e-19 9.6711e-20 3.4030e-21 3.4585e-21 
