3.1623e+03 1.3535e-27 9.6062e-26 1.3535e-27 
3.5481e+03 1.5252e-27 1.0227e-25 1.5252e-27 
3.9811e+03 1.7188e-27 1.0889e-25 1.7188e-27 
4.4668e+03 1.9393e-27 1.1595e-25 1.9393e-27 
5.0119e+03 2.2222e-27 1.2347e-25 2.2222e-27 
5.6234e+03 2.9394e-27 1.3150e-25 2.9394e-27 
6.3096e+03 7.3025e-27 1.4007e-25 7.3025e-27 
7.0795e+03 3.7020e-26 1.4921e-25 3.7021e-26 
7.9433e+03 2.0801e-25 1.5897e-25 2.0801e-25 
8.9125e+03 1.0219e-24 1.6937e-25 1.0217e-24 
1.0000e+04 4.2755e-24 1.8047e-25 4.2688e-24 
1.1220e+04 1.5404e-23 1.9232e-25 1.5246e-23 
1.2589e+04 4.8110e-23 2.0496e-25 4.5550e-23 
1.4125e+04 1.3286e-22 2.1841e-25 1.0575e-22 
1.5849e+04 3.2999e-22 2.3272e-25 1.6442e-22 
1.7783e+04 7.4607e-22 2.4798e-25 1.6714e-22 
1.9953e+04 1.5518e-21 2.6424e-25 1.3388e-22 
2.2387e+04 2.9972e-21 2.8156e-25 9.9407e-23 
2.5119e+04 5.4209e-21 3.0003e-25 7.3189e-23 
2.8184e+04 9.2488e-21 3.1972e-25 5.4579e-23 
3.1623e+04 1.4983e-20 3.4070e-25 4.1452e-23 
3.5481e+04 2.3156e-20 3.6304e-25 3.2054e-23 
3.9811e+04 3.4190e-20 3.8681e-25 2.5121e-23 
4.4668e+04 4.8681e-20 4.1208e-25 2.0023e-23 
5.0119e+04 6.7105e-20 4.3895e-25 1.6211e-23 
5.6234e+04 8.9876e-20 4.6748e-25 1.3316e-23 
6.3096e+04 1.1679e-19 4.9777e-25 1.1037e-23 
7.0795e+04 1.4809e-19 5.2994e-25 9.2508e-24 
7.9433e+04 1.8402e-19 5.6405e-25 7.8483e-24 
8.9125e+04 2.2456e-19 6.0018e-25 6.7359e-24 
1.0000e+05 2.6964e-19 6.3843e-25 5.8458e-24 
1.1220e+05 3.1909e-19 6.7886e-25 5.1281e-24 
1.2589e+05 3.7036e-19 7.2155e-25 4.5218e-24 
1.4125e+05 4.2393e-19 7.6661e-25 4.0230e-24 
1.5849e+05 4.8034e-19 8.1417e-25 3.6193e-24 
1.7783e+05 5.3867e-19 8.6426e-25 3.2894e-24 
1.9953e+05 5.9608e-19 9.1699e-25 3.0120e-24 
2.2387e+05 6.5487e-19 9.7251e-25 2.7900e-24 
2.5119e+05 7.1196e-19 1.0309e-24 2.6075e-24 
2.8184e+05 7.6820e-19 1.0922e-24 2.4625e-24 
3.1623e+05 8.0402e-19 1.1565e-24 2.3220e-24 
3.5481e+05 8.3064e-19 1.2241e-24 2.2103e-24 
3.9811e+05 8.5449e-19 1.2949e-24 2.1322e-24 
4.4668e+05 8.7550e-19 1.3692e-24 2.0819e-24 
5.0119e+05 8.9357e-19 1.4471e-24 2.0553e-24 
5.6234e+05 9.0863e-19 1.5287e-24 2.0488e-24 
6.3096e+05 9.2064e-19 1.6141e-24 2.0598e-24 
7.0795e+05 9.2955e-19 1.7036e-24 2.0861e-24 
7.9433e+05 9.3535e-19 1.7973e-24 2.1260e-24 
8.9125e+05 9.3807e-19 1.8955e-24 2.1783e-24 
1.0000e+06 9.3777e-19 1.9984e-24 2.2418e-24 
1.1220e+06 9.3453e-19 2.1061e-24 2.3159e-24 
1.2589e+06 9.2848e-19 2.2191e-24 2.3999e-24 
1.4125e+06 9.1979e-19 2.3376e-24 2.4935e-24 
1.5849e+06 9.0861e-19 2.4619e-24 2.5963e-24 
1.7783e+06 8.9517e-19 2.5923e-24 2.7082e-24 
1.9953e+06 8.7968e-19 2.7292e-24 2.8292e-24 
2.2387e+06 8.6237e-19 2.8731e-24 2.9593e-24 
2.5119e+06 8.4347e-19 3.0243e-24 3.0986e-24 
2.8184e+06 8.2323e-19 3.1834e-24 3.2473e-24 
3.1623e+06 8.0186e-19 3.3507e-24 3.4058e-24 
3.5481e+06 7.7960e-19 3.5269e-24 3.5743e-24 
3.9811e+06 7.5665e-19 3.7125e-24 3.7532e-24 
4.4668e+06 7.3320e-19 3.9082e-24 3.9432e-24 
5.0119e+06 7.0944e-19 4.1145e-24 4.1446e-24 
5.6234e+06 6.8552e-19 4.3321e-24 4.3580e-24 
6.3096e+06 6.6158e-19 4.5619e-24 4.5840e-24 
7.0795e+06 6.3777e-19 4.8046e-24 4.8236e-24 
7.9433e+06 6.1418e-19 5.0610e-24 5.0773e-24 
8.9125e+06 5.9091e-19 5.3321e-24 5.3461e-24 
1.0000e+07 5.6805e-19 5.6188e-24 5.6308e-24 
1.1220e+07 5.4565e-19 5.9223e-24 5.9325e-24 
1.2589e+07 5.2377e-19 6.2436e-24 6.2523e-24 
1.4125e+07 5.0245e-19 6.5839e-24 6.5913e-24 
1.5849e+07 4.8174e-19 6.9444e-24 6.9507e-24 
1.7783e+07 4.6164e-19 7.3266e-24 7.3320e-24 
1.9953e+07 4.4219e-19 7.7321e-24 7.7367e-24 
2.2387e+07 4.2338e-19 8.1622e-24 8.1661e-24 
2.5119e+07 4.0523e-19 8.6189e-24 8.6222e-24 
2.8184e+07 3.8773e-19 9.1039e-24 9.1067e-24 
3.1623e+07 3.7088e-19 9.6193e-24 9.6217e-24 
3.5481e+07 3.5467e-19 1.0167e-23 1.0169e-23 
3.9811e+07 3.3909e-19 1.0751e-23 1.0752e-23 
4.4668e+07 3.2413e-19 1.1372e-23 1.1373e-23 
5.0119e+07 3.0978e-19 1.2033e-23 1.2035e-23 
5.6234e+07 2.9601e-19 1.2739e-23 1.2740e-23 
6.3096e+07 2.8282e-19 1.3493e-23 1.3494e-23 
7.0795e+07 2.7018e-19 1.4298e-23 1.4299e-23 
7.9433e+07 2.5808e-19 1.5160e-23 1.5160e-23 
8.9125e+07 2.4650e-19 1.6083e-23 1.6083e-23 
1.0000e+08 2.3542e-19 1.7073e-23 1.7073e-23 
1.1220e+08 2.2483e-19 1.8136e-23 1.8137e-23 
1.2589e+08 2.1470e-19 1.9281e-23 1.9281e-23 
1.4125e+08 2.0501e-19 2.0516e-23 2.0516e-23 
1.5849e+08 1.9576e-19 2.1850e-23 2.1850e-23 
1.7783e+08 1.8691e-19 2.3295e-23 2.3295e-23 
1.9953e+08 1.7846e-19 2.4864e-23 2.4864e-23 
2.2387e+08 1.7039e-19 2.6574e-23 2.6574e-23 
2.5119e+08 1.6269e-19 2.8443e-23 2.8444e-23 
2.8184e+08 1.5533e-19 3.0490e-23 3.0491e-23 
3.1623e+08 1.4830e-19 3.2745e-23 3.2746e-23 
