2.4177e+14  5.7932e-04  5.7931e-04  9.9988e-01  7.2534e+14
1.2089e+15  2.4639e-03  2.5516e-03  9.7243e-01  1.5884e+15
1.9680e+15  3.3599e-03  3.7439e-03  9.8804e-01  1.9716e+15
1.9753e+15  3.1342e-03  3.7133e-03  8.4411e-01  2.2388e+15
2.5024e+15  3.5236e-03  4.1336e-03  8.5780e-01  2.5060e+15
2.5096e+15  3.5977e-03  4.2104e-03  8.5739e-01  2.6148e+15
2.7200e+15  4.1010e-03  4.2561e-03  9.5382e-01  2.7236e+15
2.7272e+15  3.9013e-03  4.4041e-03  8.8683e-01  3.0052e+15
3.2833e+15  3.7127e-03  4.2534e-03  8.4621e-01  3.2870e+15
3.2906e+15  2.2834e-03  2.4077e-03  9.4115e-01  3.3377e+15
3.3848e+15  1.7796e-03  2.3542e-03  7.5335e-01  3.5057e+15
3.6266e+15  1.5366e-03  2.2065e-03  6.9520e-01  3.8684e+15
4.1102e+15  1.1467e-03  1.9713e-03  5.7481e-01  4.4728e+15
4.8355e+15  8.6586e-04  1.6609e-03  5.1928e-01  5.3892e+15
5.9428e+15  9.8206e-06  1.8629e-03  6.7885e-03  5.9464e+15
5.9501e+15  8.9829e-04  1.4165e-03  6.3264e-01  5.9972e+15
6.0444e+15  6.1541e-04  1.3380e-03  4.6136e-01  6.2862e+15
6.5279e+15  2.1932e-04  1.0381e-03  2.0048e-01  7.5071e+15
8.4863e+15  4.3010e-05  9.6172e-04  5.3206e-02  8.4912e+15
8.4960e+15  2.1506e-05  4.7709e-04  5.0111e-02  1.0026e+16
1.1557e+16  9.4138e-07  5.3415e-06  1.7611e-01  1.1569e+16
1.1581e+16  4.6034e-07  2.1150e-06  1.1618e-01  1.2363e+16
1.3145e+16  1.9051e-09  2.6582e-07  1.2480e+00  1.3157e+16
1.3169e+16  2.3260e-14  2.1945e-14  1.0264e+00  1.3838e+16
1.4506e+16  1.8709e-16  1.8732e-16  9.9964e-01  1.6924e+16
1.9342e+16  1.0554e-20  1.0554e-20  9.9904e-01  2.1760e+16
2.4177e+16  5.8694e-27  5.8694e-27  9.9987e-01  3.0222e+16
3.6266e+16  5.2243e-38  5.2243e-38  1.0005e+00  4.2310e+16
4.8355e+16  1.0000e-60  1.0000e-60  1.0000e-60  4.8355e+16
7.2532e+16  1.0000e-60  1.0000e-60  1.0000e-60  7.2532e+16
8.4621e+16  1.0000e-60  1.0000e-60  1.0000e-60  8.4621e+16
9.6710e+16  1.0000e-60  1.0000e-60  1.0000e-60  9.6710e+16
1.2089e+17  1.0000e-60  1.0000e-60  1.0000e-60  1.2089e+17
1.3298e+17  1.0000e-60  1.0000e-60  1.0000e-60  1.3298e+17
1.4506e+17  1.0000e-60  1.0000e-60  1.0000e-60  1.4506e+17
1.6924e+17  1.0000e-60  1.0000e-60  1.0000e-60  1.6924e+17
2.4177e+17  1.0000e-60  1.0000e-60  1.0000e-60  2.4177e+17
3.6266e+17  1.0000e-60  1.0000e-60  1.0000e-60  3.6266e+17
4.8355e+17  1.0000e-60  1.0000e-60  1.0000e-60  4.8355e+17
6.0444e+17  1.0000e-60  1.0000e-60  1.0000e-60  6.0444e+17
